%!PS-Adobe-3.0 EPSF-3.0
%%Creator: (MATLAB, The Mathworks, Inc. Version 9.9.0.1570001 \(R2020b\) Update 4. Operating System: Windows 10)
%%Title: Figure/cl_u_6_5.eps
%%CreationDate: 2023-01-04T17:28:59
%%Pages: (atend)
%%BoundingBox:     7     6   389   292
%%LanguageLevel: 3
%%EndComments
%%BeginProlog
%%BeginResource: procset (Apache XML Graphics Std ProcSet) 1.2 0
%%Version: 1.2 0
%%Copyright: (Copyright 2001-2003,2010 The Apache Software Foundation. License terms: http://www.apache.org/licenses/LICENSE-2.0)
/bd{bind def}bind def
/ld{load def}bd
/GR/grestore ld
/GS/gsave ld
/RM/rmoveto ld
/C/curveto ld
/t/show ld
/L/lineto ld
/ML/setmiterlimit ld
/CT/concat ld
/f/fill ld
/N/newpath ld
/S/stroke ld
/CC/setcmykcolor ld
/A/ashow ld
/cp/closepath ld
/RC/setrgbcolor ld
/LJ/setlinejoin ld
/GC/setgray ld
/LW/setlinewidth ld
/M/moveto ld
/re {4 2 roll M
1 index 0 rlineto
0 exch rlineto
neg 0 rlineto
cp } bd
/_ctm matrix def
/_tm matrix def
/BT { _ctm currentmatrix pop matrix _tm copy pop 0 0 moveto } bd
/ET { _ctm setmatrix } bd
/iTm { _ctm setmatrix _tm concat } bd
/Tm { _tm astore pop iTm 0 0 moveto } bd
/ux 0.0 def
/uy 0.0 def
/F {
  /Tp exch def
  /Tf exch def
  Tf findfont Tp scalefont setfont
  /cf Tf def  /cs Tp def
} bd
/ULS {currentpoint /uy exch def /ux exch def} bd
/ULE {
  /Tcx currentpoint pop def
  gsave
  newpath
  cf findfont cs scalefont dup
  /FontMatrix get 0 get /Ts exch def /FontInfo get dup
  /UnderlinePosition get Ts mul /To exch def
  /UnderlineThickness get Ts mul /Tt exch def
  ux uy To add moveto  Tcx uy To add lineto
  Tt setlinewidth stroke
  grestore
} bd
/OLE {
  /Tcx currentpoint pop def
  gsave
  newpath
  cf findfont cs scalefont dup
  /FontMatrix get 0 get /Ts exch def /FontInfo get dup
  /UnderlinePosition get Ts mul /To exch def
  /UnderlineThickness get Ts mul /Tt exch def
  ux uy To add cs add moveto Tcx uy To add cs add lineto
  Tt setlinewidth stroke
  grestore
} bd
/SOE {
  /Tcx currentpoint pop def
  gsave
  newpath
  cf findfont cs scalefont dup
  /FontMatrix get 0 get /Ts exch def /FontInfo get dup
  /UnderlinePosition get Ts mul /To exch def
  /UnderlineThickness get Ts mul /Tt exch def
  ux uy To add cs 10 mul 26 idiv add moveto Tcx uy To add cs 10 mul 26 idiv add lineto
  Tt setlinewidth stroke
  grestore
} bd
/QT {
/Y22 exch store
/X22 exch store
/Y21 exch store
/X21 exch store
currentpoint
/Y21 load 2 mul add 3 div exch
/X21 load 2 mul add 3 div exch
/X21 load 2 mul /X22 load add 3 div
/Y21 load 2 mul /Y22 load add 3 div
/X22 load /Y22 load curveto
} bd
/SSPD {
dup length /d exch dict def
{
/v exch def
/k exch def
currentpagedevice k known {
/cpdv currentpagedevice k get def
v cpdv ne {
/upd false def
/nullv v type /nulltype eq def
/nullcpdv cpdv type /nulltype eq def
nullv nullcpdv or
{
/upd true def
} {
/sametype v type cpdv type eq def
sametype {
v type /arraytype eq {
/vlen v length def
/cpdvlen cpdv length def
vlen cpdvlen eq {
0 1 vlen 1 sub {
/i exch def
/obj v i get def
/cpdobj cpdv i get def
obj cpdobj ne {
/upd true def
exit
} if
} for
} {
/upd true def
} ifelse
} {
v type /dicttype eq {
v {
/dv exch def
/dk exch def
/cpddv cpdv dk get def
dv cpddv ne {
/upd true def
exit
} if
} forall
} {
/upd true def
} ifelse
} ifelse
} if
} ifelse
upd true eq {
d k v put
} if
} if
} if
} forall
d length 0 gt {
d setpagedevice
} if
} bd
/RE { % /NewFontName [NewEncodingArray] /FontName RE -
  findfont dup length dict begin
  {
    1 index /FID ne
    {def} {pop pop} ifelse
  } forall
  /Encoding exch def
  /FontName 1 index def
  currentdict definefont pop
  end
} bind def
%%EndResource
%%BeginResource: procset (Apache XML Graphics EPS ProcSet) 1.0 0
%%Version: 1.0 0
%%Copyright: (Copyright 2002-2003 The Apache Software Foundation. License terms: http://www.apache.org/licenses/LICENSE-2.0)
/BeginEPSF { %def
/b4_Inc_state save def         % Save state for cleanup
/dict_count countdictstack def % Count objects on dict stack
/op_count count 1 sub def      % Count objects on operand stack
userdict begin                 % Push userdict on dict stack
/showpage { } def              % Redefine showpage, { } = null proc
0 setgray 0 setlinecap         % Prepare graphics state
1 setlinewidth 0 setlinejoin
10 setmiterlimit [ ] 0 setdash newpath
/languagelevel where           % If level not equal to 1 then
{pop languagelevel             % set strokeadjust and
1 ne                           % overprint to their defaults.
{false setstrokeadjust false setoverprint
} if
} if
} bd
/EndEPSF { %def
count op_count sub {pop} repeat            % Clean up stacks
countdictstack dict_count sub {end} repeat
b4_Inc_state restore
} bd
%%EndResource
%FOPBeginFontDict
%%IncludeResource: font Courier-Oblique
%%IncludeResource: font Courier-BoldOblique
%%IncludeResource: font Courier-Bold
%%IncludeResource: font ZapfDingbats
%%IncludeResource: font Symbol
%%IncludeResource: font Helvetica
%%IncludeResource: font Helvetica-Oblique
%%IncludeResource: font Helvetica-Bold
%%IncludeResource: font Helvetica-BoldOblique
%%IncludeResource: font Times-Roman
%%IncludeResource: font Times-Italic
%%IncludeResource: font Times-Bold
%%IncludeResource: font Times-BoldItalic
%%IncludeResource: font Courier
%FOPEndFontDict
%%BeginResource: encoding WinAnsiEncoding
/WinAnsiEncoding [
/.notdef /.notdef /.notdef /.notdef /.notdef
/.notdef /.notdef /.notdef /.notdef /.notdef
/.notdef /.notdef /.notdef /.notdef /.notdef
/.notdef /.notdef /.notdef /.notdef /.notdef
/.notdef /.notdef /.notdef /.notdef /.notdef
/.notdef /.notdef /.notdef /.notdef /.notdef
/.notdef /.notdef /space /exclam /quotedbl
/numbersign /dollar /percent /ampersand /quotesingle
/parenleft /parenright /asterisk /plus /comma
/hyphen /period /slash /zero /one
/two /three /four /five /six
/seven /eight /nine /colon /semicolon
/less /equal /greater /question /at
/A /B /C /D /E
/F /G /H /I /J
/K /L /M /N /O
/P /Q /R /S /T
/U /V /W /X /Y
/Z /bracketleft /backslash /bracketright /asciicircum
/underscore /quoteleft /a /b /c
/d /e /f /g /h
/i /j /k /l /m
/n /o /p /q /r
/s /t /u /v /w
/x /y /z /braceleft /bar
/braceright /asciitilde /bullet /Euro /bullet
/quotesinglbase /florin /quotedblbase /ellipsis /dagger
/daggerdbl /circumflex /perthousand /Scaron /guilsinglleft
/OE /bullet /Zcaron /bullet /bullet
/quoteleft /quoteright /quotedblleft /quotedblright /bullet
/endash /emdash /asciitilde /trademark /scaron
/guilsinglright /oe /bullet /zcaron /Ydieresis
/space /exclamdown /cent /sterling /currency
/yen /brokenbar /section /dieresis /copyright
/ordfeminine /guillemotleft /logicalnot /sfthyphen /registered
/macron /degree /plusminus /twosuperior /threesuperior
/acute /mu /paragraph /middot /cedilla
/onesuperior /ordmasculine /guillemotright /onequarter /onehalf
/threequarters /questiondown /Agrave /Aacute /Acircumflex
/Atilde /Adieresis /Aring /AE /Ccedilla
/Egrave /Eacute /Ecircumflex /Edieresis /Igrave
/Iacute /Icircumflex /Idieresis /Eth /Ntilde
/Ograve /Oacute /Ocircumflex /Otilde /Odieresis
/multiply /Oslash /Ugrave /Uacute /Ucircumflex
/Udieresis /Yacute /Thorn /germandbls /agrave
/aacute /acircumflex /atilde /adieresis /aring
/ae /ccedilla /egrave /eacute /ecircumflex
/edieresis /igrave /iacute /icircumflex /idieresis
/eth /ntilde /ograve /oacute /ocircumflex
/otilde /odieresis /divide /oslash /ugrave
/uacute /ucircumflex /udieresis /yacute /thorn
/ydieresis
] def
%%EndResource
%FOPBeginFontReencode
/Courier-Oblique findfont
dup length dict begin
  {1 index /FID ne {def} {pop pop} ifelse} forall
  /Encoding WinAnsiEncoding def
  currentdict
end
/Courier-Oblique exch definefont pop
/Courier-BoldOblique findfont
dup length dict begin
  {1 index /FID ne {def} {pop pop} ifelse} forall
  /Encoding WinAnsiEncoding def
  currentdict
end
/Courier-BoldOblique exch definefont pop
/Courier-Bold findfont
dup length dict begin
  {1 index /FID ne {def} {pop pop} ifelse} forall
  /Encoding WinAnsiEncoding def
  currentdict
end
/Courier-Bold exch definefont pop
/Helvetica findfont
dup length dict begin
  {1 index /FID ne {def} {pop pop} ifelse} forall
  /Encoding WinAnsiEncoding def
  currentdict
end
/Helvetica exch definefont pop
/Helvetica-Oblique findfont
dup length dict begin
  {1 index /FID ne {def} {pop pop} ifelse} forall
  /Encoding WinAnsiEncoding def
  currentdict
end
/Helvetica-Oblique exch definefont pop
/Helvetica-Bold findfont
dup length dict begin
  {1 index /FID ne {def} {pop pop} ifelse} forall
  /Encoding WinAnsiEncoding def
  currentdict
end
/Helvetica-Bold exch definefont pop
/Helvetica-BoldOblique findfont
dup length dict begin
  {1 index /FID ne {def} {pop pop} ifelse} forall
  /Encoding WinAnsiEncoding def
  currentdict
end
/Helvetica-BoldOblique exch definefont pop
/Times-Roman findfont
dup length dict begin
  {1 index /FID ne {def} {pop pop} ifelse} forall
  /Encoding WinAnsiEncoding def
  currentdict
end
/Times-Roman exch definefont pop
/Times-Italic findfont
dup length dict begin
  {1 index /FID ne {def} {pop pop} ifelse} forall
  /Encoding WinAnsiEncoding def
  currentdict
end
/Times-Italic exch definefont pop
/Times-Bold findfont
dup length dict begin
  {1 index /FID ne {def} {pop pop} ifelse} forall
  /Encoding WinAnsiEncoding def
  currentdict
end
/Times-Bold exch definefont pop
/Times-BoldItalic findfont
dup length dict begin
  {1 index /FID ne {def} {pop pop} ifelse} forall
  /Encoding WinAnsiEncoding def
  currentdict
end
/Times-BoldItalic exch definefont pop
/Courier findfont
dup length dict begin
  {1 index /FID ne {def} {pop pop} ifelse} forall
  /Encoding WinAnsiEncoding def
  currentdict
end
/Courier exch definefont pop
%FOPEndFontReencode
%%EndProlog
%%Page: 1 1
%%PageBoundingBox: 0 0 420 315
%%BeginPageSetup
[1 0 0 -1 0 315] CT
%%EndPageSetup
GS
[0.6 0 0 0.6 0 0] CT
1 GC
N
0 0 700 525 re
f
GR
GS
[0.6 0 0 0.6 0 0] CT
1 GC
N
0 0 700 525 re
f
GR
GS
[0.6 0 0 0.6 0 0] CT
1 GC
N
95 449 M
634 449 L
634 39 L
95 39 L
cp
f
GR
GS
[0.6 0 0 0.6 0 0] CT
0.149 GC
2 setlinecap
1 LJ
0.833 LW
N
95 449 M
634 449 L
S
GR
GS
[0.6 0 0 0.6 0 0] CT
0.149 GC
2 setlinecap
1 LJ
0.833 LW
N
95 39 M
634 39 L
S
GR
GS
[0.6 0 0 0.6 0 0] CT
0.149 GC
2 setlinecap
1 LJ
0.833 LW
N
165.304 449 M
165.304 443.61 L
S
GR
GS
[0.6 0 0 0.6 0 0] CT
0.149 GC
2 setlinecap
1 LJ
0.833 LW
N
243.42 449 M
243.42 443.61 L
S
GR
GS
[0.6 0 0 0.6 0 0] CT
0.149 GC
2 setlinecap
1 LJ
0.833 LW
N
321.536 449 M
321.536 443.61 L
S
GR
GS
[0.6 0 0 0.6 0 0] CT
0.149 GC
2 setlinecap
1 LJ
0.833 LW
N
399.652 449 M
399.652 443.61 L
S
GR
GS
[0.6 0 0 0.6 0 0] CT
0.149 GC
2 setlinecap
1 LJ
0.833 LW
N
477.768 449 M
477.768 443.61 L
S
GR
GS
[0.6 0 0 0.6 0 0] CT
0.149 GC
2 setlinecap
1 LJ
0.833 LW
N
555.884 449 M
555.884 443.61 L
S
GR
GS
[0.6 0 0 0.6 0 0] CT
0.149 GC
2 setlinecap
1 LJ
0.833 LW
N
634 449 M
634 443.61 L
S
GR
GS
[0.6 0 0 0.6 0 0] CT
0.149 GC
2 setlinecap
1 LJ
0.833 LW
N
165.304 39 M
165.304 44.39 L
S
GR
GS
[0.6 0 0 0.6 0 0] CT
0.149 GC
2 setlinecap
1 LJ
0.833 LW
N
243.42 39 M
243.42 44.39 L
S
GR
GS
[0.6 0 0 0.6 0 0] CT
0.149 GC
2 setlinecap
1 LJ
0.833 LW
N
321.536 39 M
321.536 44.39 L
S
GR
GS
[0.6 0 0 0.6 0 0] CT
0.149 GC
2 setlinecap
1 LJ
0.833 LW
N
399.652 39 M
399.652 44.39 L
S
GR
GS
[0.6 0 0 0.6 0 0] CT
0.149 GC
2 setlinecap
1 LJ
0.833 LW
N
477.768 39 M
477.768 44.39 L
S
GR
GS
[0.6 0 0 0.6 0 0] CT
0.149 GC
2 setlinecap
1 LJ
0.833 LW
N
555.884 39 M
555.884 44.39 L
S
GR
GS
[0.6 0 0 0.6 0 0] CT
0.149 GC
2 setlinecap
1 LJ
0.833 LW
N
634 39 M
634 44.39 L
S
GR
GS
[0.6 0 0 0.6 99.18261 274.59999] CT
0.149 GC
/Helvetica 26.667 F
GS
[1 0 0 1 0 0] CT
-15 25 moveto 
1 -1 scale
(10) t 
GR
GR
GS
[0.6 0 0 0.6 146.05217 274.59999] CT
0.149 GC
/Helvetica 26.667 F
GS
[1 0 0 1 0 0] CT
-15 25 moveto 
1 -1 scale
(20) t 
GR
GR
GS
[0.6 0 0 0.6 192.92173 274.59999] CT
0.149 GC
/Helvetica 26.667 F
GS
[1 0 0 1 0 0] CT
-15 25 moveto 
1 -1 scale
(30) t 
GR
GR
GS
[0.6 0 0 0.6 239.7913 274.59999] CT
0.149 GC
/Helvetica 26.667 F
GS
[1 0 0 1 0 0] CT
-15 25 moveto 
1 -1 scale
(40) t 
GR
GR
GS
[0.6 0 0 0.6 286.66088 274.59999] CT
0.149 GC
/Helvetica 26.667 F
GS
[1 0 0 1 0 0] CT
-15 25 moveto 
1 -1 scale
(50) t 
GR
GR
GS
[0.6 0 0 0.6 333.53042 274.59999] CT
0.149 GC
/Helvetica 26.667 F
GS
[1 0 0 1 0 0] CT
-15 25 moveto 
1 -1 scale
(60) t 
GR
GR
GS
[0.6 0 0 0.6 380.4 274.59999] CT
0.149 GC
/Helvetica 26.667 F
GS
[1 0 0 1 0 0] CT
-15 25 moveto 
1 -1 scale
(70) t 
GR
GR
GS
[0.6 0 0 0.6 218.70016 293.87999] CT
0.149 GC
N
-6.55 24.109 M
-6.55 23.952 -6.519 23.859 QT
-2.316 7.093 L
-2.207 6.593 -2.175 6.312 QT
-2.175 5.843 -4.066 5.843 QT
-4.363 5.843 -4.363 5.468 QT
-4.347 5.39 -4.293 5.21 QT
-4.238 5.031 -4.168 4.929 QT
-4.097 4.827 -3.941 4.827 QT
-0.035 4.515 L
0.043 4.515 L
0.043 4.546 0.145 4.593 QT
0.247 4.64 0.262 4.656 QT
0.309 4.796 0.309 4.89 QT
-2.738 17.015 L
-1.675 16.562 -0.089 14.913 QT
1.497 13.265 2.403 12.546 QT
3.309 11.827 4.668 11.827 QT
5.465 11.827 6.036 12.382 QT
6.606 12.937 6.606 13.734 QT
6.606 14.249 6.395 14.679 QT
6.184 15.109 5.801 15.382 QT
5.418 15.656 4.903 15.656 QT
4.434 15.656 4.114 15.359 QT
3.793 15.062 3.793 14.593 QT
3.793 13.906 4.286 13.429 QT
4.778 12.952 5.465 12.952 QT
5.184 12.577 4.606 12.577 QT
3.747 12.577 2.942 13.07 QT
2.137 13.562 1.215 14.491 QT
0.293 15.421 -0.472 16.195 QT
-1.238 16.968 -1.894 17.359 QT
-0.175 17.562 1.082 18.265 QT
2.34 18.968 2.34 20.406 QT
2.34 20.702 2.231 21.156 QT
1.965 22.249 1.965 22.906 QT
1.965 24.202 2.856 24.202 QT
3.918 24.202 4.457 23.054 QT
4.997 21.906 5.356 20.374 QT
5.418 20.202 5.59 20.202 QT
5.934 20.202 L
6.043 20.202 6.122 20.273 QT
6.2 20.343 6.2 20.468 QT
6.2 20.484 6.184 20.546 QT
5.09 24.968 2.809 24.968 QT
1.981 24.968 1.356 24.585 QT
0.731 24.202 0.387 23.546 QT
0.043 22.89 0.043 22.062 QT
0.043 21.593 0.168 21.093 QT
0.262 20.765 0.262 20.468 QT
0.262 19.343 -0.73 18.765 QT
-1.722 18.187 -3.003 18.062 QT
-4.472 23.968 L
-4.582 24.406 -4.91 24.687 QT
-5.238 24.968 -5.66 24.968 QT
-6.035 24.968 -6.293 24.718 QT
-6.55 24.468 -6.55 24.109 QT
cp
f
GR
GS
[0.6 0 0 0.6 0 0] CT
0.149 GC
2 setlinecap
1 LJ
0.833 LW
N
95 449 M
95 39 L
S
GR
GS
[0.6 0 0 0.6 0 0] CT
0.149 GC
2 setlinecap
1 LJ
0.833 LW
N
634 449 M
634 39 L
S
GR
GS
[0.6 0 0 0.6 0 0] CT
0.149 GC
2 setlinecap
1 LJ
0.833 LW
N
95 439.238 M
100.39 439.238 L
S
GR
GS
[0.6 0 0 0.6 0 0] CT
0.149 GC
2 setlinecap
1 LJ
0.833 LW
N
95 341.619 M
100.39 341.619 L
S
GR
GS
[0.6 0 0 0.6 0 0] CT
0.149 GC
2 setlinecap
1 LJ
0.833 LW
N
95 244 M
100.39 244 L
S
GR
GS
[0.6 0 0 0.6 0 0] CT
0.149 GC
2 setlinecap
1 LJ
0.833 LW
N
95 146.381 M
100.39 146.381 L
S
GR
GS
[0.6 0 0 0.6 0 0] CT
0.149 GC
2 setlinecap
1 LJ
0.833 LW
N
95 48.762 M
100.39 48.762 L
S
GR
GS
[0.6 0 0 0.6 0 0] CT
0.149 GC
2 setlinecap
1 LJ
0.833 LW
N
634 439.238 M
628.61 439.238 L
S
GR
GS
[0.6 0 0 0.6 0 0] CT
0.149 GC
2 setlinecap
1 LJ
0.833 LW
N
634 341.619 M
628.61 341.619 L
S
GR
GS
[0.6 0 0 0.6 0 0] CT
0.149 GC
2 setlinecap
1 LJ
0.833 LW
N
634 244 M
628.61 244 L
S
GR
GS
[0.6 0 0 0.6 0 0] CT
0.149 GC
2 setlinecap
1 LJ
0.833 LW
N
634 146.381 M
628.61 146.381 L
S
GR
GS
[0.6 0 0 0.6 0 0] CT
0.149 GC
2 setlinecap
1 LJ
0.833 LW
N
634 48.762 M
628.61 48.762 L
S
GR
GS
[0.6 0 0 0.6 51.8 263.54286] CT
0.149 GC
/Helvetica 26.667 F
GS
[1 0 0 1 0 0] CT
-24 9.5 moveto 
1 -1 scale
(-1) t 
GR
GR
GS
[0.6 0 0 0.6 51.8 204.97143] CT
0.149 GC
/Helvetica 26.667 F
GS
[1 0 0 1 0 0] CT
-46 9.5 moveto 
1 -1 scale
(-0.5) t 
GR
GR
GS
[0.6 0 0 0.6 51.8 146.4] CT
0.149 GC
/Helvetica 26.667 F
GS
[1 0 0 1 0 0] CT
-15 9.5 moveto 
1 -1 scale
(0) t 
GR
GR
GS
[0.6 0 0 0.6 51.8 87.82857] CT
0.149 GC
/Helvetica 26.667 F
GS
[1 0 0 1 0 0] CT
-38 9.5 moveto 
1 -1 scale
(0.5) t 
GR
GR
GS
[0.6 0 0 0.6 51.8 29.25714] CT
0.149 GC
/Helvetica 26.667 F
GS
[1 0 0 1 0 0] CT
-15 9.5 moveto 
1 -1 scale
(1) t 
GR
GR
GS
[0 -0.6 0.6 0 21.12 146.39988] CT
0.149 GC
N
-5.318 -13.716 M
-5.318 -14.669 -5.068 -15.669 QT
-4.818 -16.669 -4.357 -17.888 QT
-3.896 -19.107 -3.552 -20.013 QT
-3.177 -21.076 -3.177 -21.763 QT
-3.177 -22.623 -3.802 -22.623 QT
-4.959 -22.623 -5.701 -21.443 QT
-6.443 -20.263 -6.802 -18.794 QT
-6.849 -18.623 -7.037 -18.623 QT
-7.38 -18.623 L
-7.615 -18.623 -7.615 -18.888 QT
-7.615 -18.966 L
-7.146 -20.701 -6.185 -22.037 QT
-5.224 -23.373 -3.755 -23.373 QT
-2.724 -23.373 -2.005 -22.693 QT
-1.287 -22.013 -1.287 -20.966 QT
-1.287 -20.435 -1.521 -19.841 QT
-1.662 -19.482 -2.115 -18.294 QT
-2.568 -17.107 -2.802 -16.326 QT
-3.037 -15.544 -3.193 -14.794 QT
-3.349 -14.044 -3.349 -13.294 QT
-3.349 -12.326 -2.943 -11.662 QT
-2.537 -10.998 -1.615 -10.998 QT
0.245 -10.998 1.651 -13.294 QT
1.666 -13.404 1.69 -13.513 QT
1.713 -13.623 1.729 -13.716 QT
3.807 -22.123 L
3.916 -22.513 4.268 -22.787 QT
4.62 -23.06 5.026 -23.06 QT
5.385 -23.06 5.643 -22.834 QT
5.901 -22.607 5.901 -22.248 QT
5.901 -22.076 5.885 -22.013 QT
3.776 -13.654 L
3.588 -12.794 3.588 -12.248 QT
3.588 -10.998 4.416 -10.998 QT
5.354 -10.998 5.815 -12.154 QT
6.276 -13.31 6.604 -14.826 QT
6.651 -14.998 6.823 -14.998 QT
7.182 -14.998 L
7.291 -14.998 7.362 -14.896 QT
7.432 -14.794 7.432 -14.716 QT
7.12 -13.466 6.831 -12.576 QT
6.541 -11.685 5.916 -10.959 QT
5.291 -10.232 4.37 -10.232 QT
3.448 -10.232 2.713 -10.74 QT
1.979 -11.248 1.729 -12.107 QT
1.057 -11.248 0.182 -10.74 QT
-0.693 -10.232 -1.677 -10.232 QT
-3.334 -10.232 -4.326 -11.146 QT
-5.318 -12.06 -5.318 -13.716 QT
cp
f
GR
GS
[0.6 0 0 0.6 0 0] CT
10.0 ML
3.333 LW
N
95 48.762 M
102.812 48.762 L
102.812 48.762 L
110.623 48.762 L
110.623 48.762 L
118.435 48.762 L
118.435 48.762 L
126.246 48.762 L
126.246 439.238 L
134.058 439.238 L
134.058 439.238 L
141.87 439.238 L
141.87 439.238 L
149.681 439.238 L
149.681 439.238 L
157.493 439.238 L
157.493 48.762 L
165.304 48.762 L
165.304 48.762 L
173.116 48.762 L
173.116 48.762 L
180.928 48.762 L
180.928 48.762 L
188.739 48.762 L
188.739 48.762 L
196.551 48.762 L
196.551 439.238 L
204.362 439.238 L
204.362 439.238 L
212.174 439.238 L
212.174 439.238 L
219.986 439.238 L
219.986 439.238 L
227.797 439.238 L
227.797 48.762 L
235.609 48.762 L
235.609 48.762 L
243.42 48.762 L
243.42 48.762 L
251.232 48.762 L
251.232 48.762 L
259.043 48.762 L
259.043 439.238 L
266.855 439.238 L
266.855 439.238 L
274.667 439.238 L
274.667 439.238 L
282.478 439.238 L
282.478 439.238 L
290.29 439.238 L
290.29 48.762 L
298.101 48.762 L
298.101 48.762 L
305.913 48.762 L
305.913 48.762 L
313.725 48.762 L
313.725 48.762 L
321.536 48.762 L
321.536 439.238 L
329.348 439.238 L
329.348 439.238 L
337.159 439.238 L
337.159 439.238 L
344.971 439.238 L
344.971 282.334 L
352.783 282.334 L
352.783 149.458 L
360.594 149.458 L
360.594 234.081 L
368.406 234.081 L
368.406 180.539 L
376.217 180.539 L
376.217 295.159 L
384.029 295.159 L
384.029 190.154 L
391.841 190.154 L
391.841 300.386 L
399.652 300.386 L
399.652 184.775 L
407.464 184.775 L
407.464 306.183 L
415.275 306.183 L
415.275 178.726 L
423.087 178.726 L
423.087 312.518 L
430.899 312.518 L
430.899 172.078 L
438.71 172.078 L
438.71 319.496 L
446.522 319.496 L
446.522 164.752 L
454.333 164.752 L
454.333 327.186 L
462.145 327.186 L
462.145 156.681 L
469.957 156.681 L
469.957 335.659 L
477.768 335.659 L
477.768 147.787 L
485.58 147.787 L
485.58 344.994 L
493.391 344.994 L
493.391 137.987 L
501.203 137.987 L
501.203 355.28 L
509.014 355.28 L
509.014 127.191 L
516.826 127.191 L
516.826 366.612 L
524.638 366.612 L
524.638 115.299 L
532.449 115.299 L
532.449 379.089 L
540.261 379.089 L
540.261 102.215 L
548.072 102.215 L
548.072 392.825 L
555.884 392.825 L
555.884 87.78 L
563.696 87.78 L
563.696 407.984 L
571.507 407.984 L
571.507 71.877 L
579.319 71.877 L
579.319 424.675 L
587.13 424.675 L
587.13 54.886 L
594.942 54.886 L
594.942 438.301 L
602.754 438.301 L
602.754 48.784 L
610.565 48.784 L
610.565 439.175 L
618.377 439.175 L
618.377 48.78 L
626.188 48.78 L
626.188 439.225 L
634 439.225 L
634 48.847 L
634.064 48.847 L
S
GR
GS
[0.6 0 0 0.6 0 0] CT
0 0 1 RC
[12 12] 0 setdash
2 LJ
3.333 LW
N
95 48.762 M
102.812 48.762 L
102.812 48.762 L
110.623 48.762 L
110.623 48.762 L
118.435 48.762 L
118.435 48.762 L
126.246 48.762 L
126.246 439.238 L
134.058 439.238 L
134.058 439.238 L
141.87 439.238 L
141.87 439.238 L
149.681 439.238 L
149.681 439.238 L
157.493 439.238 L
157.493 48.762 L
165.304 48.762 L
165.304 48.762 L
173.116 48.762 L
173.116 48.762 L
180.928 48.762 L
180.928 48.762 L
188.739 48.762 L
188.739 48.762 L
196.551 48.762 L
196.551 439.238 L
204.362 439.238 L
204.362 439.238 L
212.174 439.238 L
212.174 439.238 L
219.986 439.238 L
219.986 439.238 L
227.797 439.238 L
227.797 48.762 L
235.609 48.762 L
235.609 48.762 L
243.42 48.762 L
243.42 48.762 L
251.232 48.762 L
251.232 48.762 L
259.043 48.762 L
259.043 439.238 L
266.855 439.238 L
266.855 439.238 L
274.667 439.238 L
274.667 439.238 L
282.478 439.238 L
282.478 439.238 L
290.29 439.238 L
290.29 48.762 L
298.101 48.762 L
298.101 48.762 L
305.913 48.762 L
305.913 48.762 L
313.725 48.762 L
313.725 48.762 L
321.536 48.762 L
321.536 439.238 L
329.348 439.238 L
329.348 439.238 L
337.159 439.238 L
337.159 439.238 L
344.971 439.238 L
344.971 295.848 L
352.783 295.848 L
352.783 130.311 L
360.594 130.311 L
360.594 233.655 L
368.406 233.655 L
368.406 208.223 L
376.217 208.223 L
376.217 253.335 L
384.029 253.335 L
384.029 238.769 L
391.841 238.769 L
391.841 243.133 L
399.652 243.133 L
399.652 245.625 L
407.464 245.625 L
407.464 242.549 L
415.275 242.549 L
415.275 244.703 L
423.087 244.703 L
423.087 243.808 L
430.899 243.808 L
430.899 243.937 L
438.71 243.937 L
438.71 244.117 L
446.522 244.117 L
446.522 243.913 L
454.333 243.913 L
454.333 244.04 L
462.145 244.04 L
462.145 243.991 L
469.957 243.991 L
469.957 243.995 L
477.768 243.995 L
477.768 244.008 L
485.58 244.008 L
485.58 243.995 L
493.391 243.995 L
493.391 244.002 L
501.203 244.002 L
501.203 244 L
509.014 244 L
509.014 244 L
516.826 244 L
516.826 244 L
524.638 244 L
524.638 244 L
532.449 244 L
532.449 244 L
540.261 244 L
540.261 244 L
548.072 244 L
548.072 244 L
555.884 244 L
555.884 244 L
563.696 244 L
563.696 244 L
571.507 244 L
571.507 244 L
579.319 244 L
579.319 244 L
587.13 244 L
587.13 244 L
594.942 244 L
594.942 244 L
602.754 244 L
602.754 244 L
610.565 244 L
610.565 244 L
618.377 244 L
618.377 244 L
626.188 244 L
626.188 244 L
634 244 L
634 244 L
634.064 244 L
S
GR
GS
[0.6 0 0 0.6 0 0] CT
1 0 0 RC
10.0 ML
3.333 LW
N
95 188.241 M
102.812 188.241 L
102.812 84.522 L
110.623 84.522 L
110.623 69.585 L
118.435 69.585 L
118.435 157.303 L
126.246 157.303 L
126.246 274.991 L
134.058 274.991 L
134.058 361.013 L
141.87 361.013 L
141.87 377.799 L
149.681 377.799 L
149.681 321.809 L
157.493 321.809 L
157.493 232.398 L
165.304 232.398 L
165.304 160.535 L
173.116 160.535 L
173.116 140.641 L
180.928 140.641 L
180.928 176.953 L
188.739 176.953 L
188.739 243.645 L
196.551 243.645 L
196.551 302.167 L
204.362 302.167 L
204.362 323.236 L
212.174 323.236 L
212.174 300.548 L
219.986 300.548 L
219.986 251.296 L
227.797 251.296 L
227.797 204.38 L
235.609 204.38 L
235.609 183.867 L
243.42 183.867 L
243.42 197.128 L
251.232 197.128 L
251.232 233.085 L
259.043 233.085 L
259.043 270.245 L
266.855 270.245 L
266.855 289.158 L
274.667 289.158 L
274.667 282.271 L
282.478 282.271 L
282.478 256.364 L
290.29 256.364 L
290.29 227.254 L
298.101 227.254 L
298.101 210.456 L
305.913 210.456 L
305.913 213.165 L
313.725 213.165 L
313.725 231.551 L
321.536 231.551 L
321.536 254.118 L
329.348 254.118 L
329.348 268.628 L
337.159 268.628 L
337.159 268.545 L
344.971 268.545 L
344.971 255.726 L
352.783 255.726 L
352.783 238.409 L
360.594 238.409 L
360.594 226.147 L
368.406 226.147 L
368.406 224.679 L
376.217 224.679 L
376.217 233.427 L
384.029 233.427 L
384.029 246.58 L
391.841 246.58 L
391.841 256.759 L
399.652 256.759 L
399.652 259.047 L
407.464 259.047 L
407.464 253.237 L
415.275 253.237 L
415.275 243.352 L
423.087 243.352 L
423.087 235.031 L
430.899 235.031 L
430.899 232.401 L
438.71 232.401 L
438.71 236.122 L
446.522 236.122 L
446.522 243.472 L
454.333 243.472 L
454.333 250.183 L
462.145 250.183 L
462.145 252.85 L
469.957 252.85 L
469.957 250.589 L
477.768 250.589 L
477.768 245.188 L
485.58 245.188 L
485.58 239.84 L
493.391 239.84 L
493.391 237.317 L
501.203 237.317 L
501.203 238.578 L
509.014 238.578 L
509.014 242.498 L
516.826 242.498 L
516.826 246.711 L
524.638 246.711 L
524.638 248.993 L
532.449 248.993 L
532.449 248.398 L
540.261 248.398 L
540.261 245.593 L
548.072 245.593 L
548.072 242.309 L
555.884 242.309 L
555.884 240.311 L
563.696 240.311 L
563.696 240.477 L
571.507 240.477 L
571.507 242.452 L
579.319 242.452 L
579.319 244.985 L
587.13 244.985 L
587.13 246.693 L
594.942 246.693 L
594.942 246.789 L
602.754 246.789 L
602.754 245.426 L
610.565 245.426 L
610.565 243.491 L
618.377 243.491 L
618.377 242.061 L
626.188 242.061 L
626.188 241.816 L
634 241.816 L
634 242.735 L
634.064 242.735 L
S
GR
GS
[0.6 0 0 0.6 0 0] CT
1 LJ
1.667 LW
N
94.936 48.762 M
634.064 48.762 L
S
GR
GS
[0.6 0 0 0.6 0 0] CT
1 LJ
1.667 LW
N
94.936 439.238 M
634.064 439.238 L
S
GR
%%Trailer
%%Pages: 1
%%EOF
