%!PS-Adobe-3.0 EPSF-3.0
%%Creator: (MATLAB, The Mathworks, Inc. Version 9.9.0.1570001 \(R2020b\) Update 4. Operating System: Windows 10)
%%Title: Figure/cl_z1_6_5.eps
%%CreationDate: 2023-01-04T17:28:59
%%Pages: (atend)
%%BoundingBox:     0     6   394   292
%%LanguageLevel: 3
%%EndComments
%%BeginProlog
%%BeginResource: procset (Apache XML Graphics Std ProcSet) 1.2 0
%%Version: 1.2 0
%%Copyright: (Copyright 2001-2003,2010 The Apache Software Foundation. License terms: http://www.apache.org/licenses/LICENSE-2.0)
/bd{bind def}bind def
/ld{load def}bd
/GR/grestore ld
/GS/gsave ld
/RM/rmoveto ld
/C/curveto ld
/t/show ld
/L/lineto ld
/ML/setmiterlimit ld
/CT/concat ld
/f/fill ld
/N/newpath ld
/S/stroke ld
/CC/setcmykcolor ld
/A/ashow ld
/cp/closepath ld
/RC/setrgbcolor ld
/LJ/setlinejoin ld
/GC/setgray ld
/LW/setlinewidth ld
/M/moveto ld
/re {4 2 roll M
1 index 0 rlineto
0 exch rlineto
neg 0 rlineto
cp } bd
/_ctm matrix def
/_tm matrix def
/BT { _ctm currentmatrix pop matrix _tm copy pop 0 0 moveto } bd
/ET { _ctm setmatrix } bd
/iTm { _ctm setmatrix _tm concat } bd
/Tm { _tm astore pop iTm 0 0 moveto } bd
/ux 0.0 def
/uy 0.0 def
/F {
  /Tp exch def
  /Tf exch def
  Tf findfont Tp scalefont setfont
  /cf Tf def  /cs Tp def
} bd
/ULS {currentpoint /uy exch def /ux exch def} bd
/ULE {
  /Tcx currentpoint pop def
  gsave
  newpath
  cf findfont cs scalefont dup
  /FontMatrix get 0 get /Ts exch def /FontInfo get dup
  /UnderlinePosition get Ts mul /To exch def
  /UnderlineThickness get Ts mul /Tt exch def
  ux uy To add moveto  Tcx uy To add lineto
  Tt setlinewidth stroke
  grestore
} bd
/OLE {
  /Tcx currentpoint pop def
  gsave
  newpath
  cf findfont cs scalefont dup
  /FontMatrix get 0 get /Ts exch def /FontInfo get dup
  /UnderlinePosition get Ts mul /To exch def
  /UnderlineThickness get Ts mul /Tt exch def
  ux uy To add cs add moveto Tcx uy To add cs add lineto
  Tt setlinewidth stroke
  grestore
} bd
/SOE {
  /Tcx currentpoint pop def
  gsave
  newpath
  cf findfont cs scalefont dup
  /FontMatrix get 0 get /Ts exch def /FontInfo get dup
  /UnderlinePosition get Ts mul /To exch def
  /UnderlineThickness get Ts mul /Tt exch def
  ux uy To add cs 10 mul 26 idiv add moveto Tcx uy To add cs 10 mul 26 idiv add lineto
  Tt setlinewidth stroke
  grestore
} bd
/QT {
/Y22 exch store
/X22 exch store
/Y21 exch store
/X21 exch store
currentpoint
/Y21 load 2 mul add 3 div exch
/X21 load 2 mul add 3 div exch
/X21 load 2 mul /X22 load add 3 div
/Y21 load 2 mul /Y22 load add 3 div
/X22 load /Y22 load curveto
} bd
/SSPD {
dup length /d exch dict def
{
/v exch def
/k exch def
currentpagedevice k known {
/cpdv currentpagedevice k get def
v cpdv ne {
/upd false def
/nullv v type /nulltype eq def
/nullcpdv cpdv type /nulltype eq def
nullv nullcpdv or
{
/upd true def
} {
/sametype v type cpdv type eq def
sametype {
v type /arraytype eq {
/vlen v length def
/cpdvlen cpdv length def
vlen cpdvlen eq {
0 1 vlen 1 sub {
/i exch def
/obj v i get def
/cpdobj cpdv i get def
obj cpdobj ne {
/upd true def
exit
} if
} for
} {
/upd true def
} ifelse
} {
v type /dicttype eq {
v {
/dv exch def
/dk exch def
/cpddv cpdv dk get def
dv cpddv ne {
/upd true def
exit
} if
} forall
} {
/upd true def
} ifelse
} ifelse
} if
} ifelse
upd true eq {
d k v put
} if
} if
} if
} forall
d length 0 gt {
d setpagedevice
} if
} bd
/RE { % /NewFontName [NewEncodingArray] /FontName RE -
  findfont dup length dict begin
  {
    1 index /FID ne
    {def} {pop pop} ifelse
  } forall
  /Encoding exch def
  /FontName 1 index def
  currentdict definefont pop
  end
} bind def
%%EndResource
%%BeginResource: procset (Apache XML Graphics EPS ProcSet) 1.0 0
%%Version: 1.0 0
%%Copyright: (Copyright 2002-2003 The Apache Software Foundation. License terms: http://www.apache.org/licenses/LICENSE-2.0)
/BeginEPSF { %def
/b4_Inc_state save def         % Save state for cleanup
/dict_count countdictstack def % Count objects on dict stack
/op_count count 1 sub def      % Count objects on operand stack
userdict begin                 % Push userdict on dict stack
/showpage { } def              % Redefine showpage, { } = null proc
0 setgray 0 setlinecap         % Prepare graphics state
1 setlinewidth 0 setlinejoin
10 setmiterlimit [ ] 0 setdash newpath
/languagelevel where           % If level not equal to 1 then
{pop languagelevel             % set strokeadjust and
1 ne                           % overprint to their defaults.
{false setstrokeadjust false setoverprint
} if
} if
} bd
/EndEPSF { %def
count op_count sub {pop} repeat            % Clean up stacks
countdictstack dict_count sub {end} repeat
b4_Inc_state restore
} bd
%%EndResource
%FOPBeginFontDict
%%IncludeResource: font Courier-Oblique
%%IncludeResource: font Courier-BoldOblique
%%IncludeResource: font Courier-Bold
%%IncludeResource: font ZapfDingbats
%%IncludeResource: font Symbol
%%IncludeResource: font Helvetica
%%IncludeResource: font Helvetica-Oblique
%%IncludeResource: font Helvetica-Bold
%%IncludeResource: font Helvetica-BoldOblique
%%IncludeResource: font Times-Roman
%%IncludeResource: font Times-Italic
%%IncludeResource: font Times-Bold
%%IncludeResource: font Times-BoldItalic
%%IncludeResource: font Courier
%FOPEndFontDict
%%BeginResource: encoding WinAnsiEncoding
/WinAnsiEncoding [
/.notdef /.notdef /.notdef /.notdef /.notdef
/.notdef /.notdef /.notdef /.notdef /.notdef
/.notdef /.notdef /.notdef /.notdef /.notdef
/.notdef /.notdef /.notdef /.notdef /.notdef
/.notdef /.notdef /.notdef /.notdef /.notdef
/.notdef /.notdef /.notdef /.notdef /.notdef
/.notdef /.notdef /space /exclam /quotedbl
/numbersign /dollar /percent /ampersand /quotesingle
/parenleft /parenright /asterisk /plus /comma
/hyphen /period /slash /zero /one
/two /three /four /five /six
/seven /eight /nine /colon /semicolon
/less /equal /greater /question /at
/A /B /C /D /E
/F /G /H /I /J
/K /L /M /N /O
/P /Q /R /S /T
/U /V /W /X /Y
/Z /bracketleft /backslash /bracketright /asciicircum
/underscore /quoteleft /a /b /c
/d /e /f /g /h
/i /j /k /l /m
/n /o /p /q /r
/s /t /u /v /w
/x /y /z /braceleft /bar
/braceright /asciitilde /bullet /Euro /bullet
/quotesinglbase /florin /quotedblbase /ellipsis /dagger
/daggerdbl /circumflex /perthousand /Scaron /guilsinglleft
/OE /bullet /Zcaron /bullet /bullet
/quoteleft /quoteright /quotedblleft /quotedblright /bullet
/endash /emdash /asciitilde /trademark /scaron
/guilsinglright /oe /bullet /zcaron /Ydieresis
/space /exclamdown /cent /sterling /currency
/yen /brokenbar /section /dieresis /copyright
/ordfeminine /guillemotleft /logicalnot /sfthyphen /registered
/macron /degree /plusminus /twosuperior /threesuperior
/acute /mu /paragraph /middot /cedilla
/onesuperior /ordmasculine /guillemotright /onequarter /onehalf
/threequarters /questiondown /Agrave /Aacute /Acircumflex
/Atilde /Adieresis /Aring /AE /Ccedilla
/Egrave /Eacute /Ecircumflex /Edieresis /Igrave
/Iacute /Icircumflex /Idieresis /Eth /Ntilde
/Ograve /Oacute /Ocircumflex /Otilde /Odieresis
/multiply /Oslash /Ugrave /Uacute /Ucircumflex
/Udieresis /Yacute /Thorn /germandbls /agrave
/aacute /acircumflex /atilde /adieresis /aring
/ae /ccedilla /egrave /eacute /ecircumflex
/edieresis /igrave /iacute /icircumflex /idieresis
/eth /ntilde /ograve /oacute /ocircumflex
/otilde /odieresis /divide /oslash /ugrave
/uacute /ucircumflex /udieresis /yacute /thorn
/ydieresis
] def
%%EndResource
%FOPBeginFontReencode
/Courier-Oblique findfont
dup length dict begin
  {1 index /FID ne {def} {pop pop} ifelse} forall
  /Encoding WinAnsiEncoding def
  currentdict
end
/Courier-Oblique exch definefont pop
/Courier-BoldOblique findfont
dup length dict begin
  {1 index /FID ne {def} {pop pop} ifelse} forall
  /Encoding WinAnsiEncoding def
  currentdict
end
/Courier-BoldOblique exch definefont pop
/Courier-Bold findfont
dup length dict begin
  {1 index /FID ne {def} {pop pop} ifelse} forall
  /Encoding WinAnsiEncoding def
  currentdict
end
/Courier-Bold exch definefont pop
/Helvetica findfont
dup length dict begin
  {1 index /FID ne {def} {pop pop} ifelse} forall
  /Encoding WinAnsiEncoding def
  currentdict
end
/Helvetica exch definefont pop
/Helvetica-Oblique findfont
dup length dict begin
  {1 index /FID ne {def} {pop pop} ifelse} forall
  /Encoding WinAnsiEncoding def
  currentdict
end
/Helvetica-Oblique exch definefont pop
/Helvetica-Bold findfont
dup length dict begin
  {1 index /FID ne {def} {pop pop} ifelse} forall
  /Encoding WinAnsiEncoding def
  currentdict
end
/Helvetica-Bold exch definefont pop
/Helvetica-BoldOblique findfont
dup length dict begin
  {1 index /FID ne {def} {pop pop} ifelse} forall
  /Encoding WinAnsiEncoding def
  currentdict
end
/Helvetica-BoldOblique exch definefont pop
/Times-Roman findfont
dup length dict begin
  {1 index /FID ne {def} {pop pop} ifelse} forall
  /Encoding WinAnsiEncoding def
  currentdict
end
/Times-Roman exch definefont pop
/Times-Italic findfont
dup length dict begin
  {1 index /FID ne {def} {pop pop} ifelse} forall
  /Encoding WinAnsiEncoding def
  currentdict
end
/Times-Italic exch definefont pop
/Times-Bold findfont
dup length dict begin
  {1 index /FID ne {def} {pop pop} ifelse} forall
  /Encoding WinAnsiEncoding def
  currentdict
end
/Times-Bold exch definefont pop
/Times-BoldItalic findfont
dup length dict begin
  {1 index /FID ne {def} {pop pop} ifelse} forall
  /Encoding WinAnsiEncoding def
  currentdict
end
/Times-BoldItalic exch definefont pop
/Courier findfont
dup length dict begin
  {1 index /FID ne {def} {pop pop} ifelse} forall
  /Encoding WinAnsiEncoding def
  currentdict
end
/Courier exch definefont pop
%FOPEndFontReencode
%%EndProlog
%%Page: 1 1
%%PageBoundingBox: 0 0 420 315
%%BeginPageSetup
[1 0 0 -1 0 315] CT
%%EndPageSetup
GS
[0.6 0 0 0.6 0 0] CT
1 GC
N
0 0 700 525 re
f
GR
GS
[0.6 0 0 0.6 0 0] CT
1 GC
N
0 0 700 525 re
f
GR
GS
[0.6 0 0 0.6 0 0] CT
1 GC
N
110 449 M
634 449 L
634 39 L
110 39 L
cp
f
GR
GS
[0.6 0 0 0.6 0 0] CT
0.149 GC
2 setlinecap
1 LJ
0.833 LW
N
110 449 M
634 449 L
S
GR
GS
[0.6 0 0 0.6 0 0] CT
0.149 GC
2 setlinecap
1 LJ
0.833 LW
N
110 39 M
634 39 L
S
GR
GS
[0.6 0 0 0.6 0 0] CT
0.149 GC
2 setlinecap
1 LJ
0.833 LW
N
282.322 449 M
282.322 443.76 L
S
GR
GS
[0.6 0 0 0.6 0 0] CT
0.149 GC
2 setlinecap
1 LJ
0.833 LW
N
458.161 449 M
458.161 443.76 L
S
GR
GS
[0.6 0 0 0.6 0 0] CT
0.149 GC
2 setlinecap
1 LJ
0.833 LW
N
634 449 M
634 443.76 L
S
GR
GS
[0.6 0 0 0.6 0 0] CT
0.149 GC
2 setlinecap
1 LJ
0.833 LW
N
282.322 39 M
282.322 44.24 L
S
GR
GS
[0.6 0 0 0.6 0 0] CT
0.149 GC
2 setlinecap
1 LJ
0.833 LW
N
458.161 39 M
458.161 44.24 L
S
GR
GS
[0.6 0 0 0.6 0 0] CT
0.149 GC
2 setlinecap
1 LJ
0.833 LW
N
634 39 M
634 44.24 L
S
GR
GS
[0.6 0 0 0.6 169.39329 274.59999] CT
0.149 GC
/Helvetica 26.667 F
GS
[1 0 0 1 0 0] CT
-15 25 moveto 
1 -1 scale
(50) t 
GR
GR
GS
[0.6 0 0 0.6 274.89664 274.59999] CT
0.149 GC
/Helvetica 26.667 F
GS
[1 0 0 1 0 0] CT
-22.5 25 moveto 
1 -1 scale
(100) t 
GR
GR
GS
[0.6 0 0 0.6 380.4 274.59999] CT
0.149 GC
/Helvetica 26.667 F
GS
[1 0 0 1 0 0] CT
-22.5 25 moveto 
1 -1 scale
(150) t 
GR
GR
GS
[0.6 0 0 0.6 223.20015 293.60001] CT
0.149 GC
N
-6.55 24.109 M
-6.55 23.952 -6.519 23.859 QT
-2.316 7.093 L
-2.207 6.593 -2.175 6.312 QT
-2.175 5.843 -4.066 5.843 QT
-4.363 5.843 -4.363 5.468 QT
-4.347 5.39 -4.293 5.21 QT
-4.238 5.031 -4.168 4.929 QT
-4.097 4.827 -3.941 4.827 QT
-0.035 4.515 L
0.043 4.515 L
0.043 4.546 0.145 4.593 QT
0.247 4.64 0.262 4.656 QT
0.309 4.796 0.309 4.89 QT
-2.738 17.015 L
-1.675 16.562 -0.089 14.913 QT
1.497 13.265 2.403 12.546 QT
3.309 11.827 4.668 11.827 QT
5.465 11.827 6.036 12.382 QT
6.606 12.937 6.606 13.734 QT
6.606 14.249 6.395 14.679 QT
6.184 15.109 5.801 15.382 QT
5.418 15.656 4.903 15.656 QT
4.434 15.656 4.114 15.359 QT
3.793 15.062 3.793 14.593 QT
3.793 13.906 4.286 13.429 QT
4.778 12.952 5.465 12.952 QT
5.184 12.577 4.606 12.577 QT
3.747 12.577 2.942 13.07 QT
2.137 13.562 1.215 14.491 QT
0.293 15.421 -0.472 16.195 QT
-1.238 16.968 -1.894 17.359 QT
-0.175 17.562 1.082 18.265 QT
2.34 18.968 2.34 20.406 QT
2.34 20.702 2.231 21.156 QT
1.965 22.249 1.965 22.906 QT
1.965 24.202 2.856 24.202 QT
3.918 24.202 4.457 23.054 QT
4.997 21.906 5.356 20.374 QT
5.418 20.202 5.59 20.202 QT
5.934 20.202 L
6.043 20.202 6.122 20.273 QT
6.2 20.343 6.2 20.468 QT
6.2 20.484 6.184 20.546 QT
5.09 24.968 2.809 24.968 QT
1.981 24.968 1.356 24.585 QT
0.731 24.202 0.387 23.546 QT
0.043 22.89 0.043 22.062 QT
0.043 21.593 0.168 21.093 QT
0.262 20.765 0.262 20.468 QT
0.262 19.343 -0.73 18.765 QT
-1.722 18.187 -3.003 18.062 QT
-4.472 23.968 L
-4.582 24.406 -4.91 24.687 QT
-5.238 24.968 -5.66 24.968 QT
-6.035 24.968 -6.293 24.718 QT
-6.55 24.468 -6.55 24.109 QT
cp
f
GR
GS
[0.6 0 0 0.6 0 0] CT
0.149 GC
2 setlinecap
1 LJ
0.833 LW
N
110 449 M
110 39 L
S
GR
GS
[0.6 0 0 0.6 0 0] CT
0.149 GC
2 setlinecap
1 LJ
0.833 LW
N
634 449 M
634 39 L
S
GR
GS
[0.6 0 0 0.6 0 0] CT
0.149 GC
2 setlinecap
1 LJ
0.833 LW
N
110 449 M
115.24 449 L
S
GR
GS
[0.6 0 0 0.6 0 0] CT
0.149 GC
2 setlinecap
1 LJ
0.833 LW
N
110 287.57 M
115.24 287.57 L
S
GR
GS
[0.6 0 0 0.6 0 0] CT
0.149 GC
2 setlinecap
1 LJ
0.833 LW
N
110 126.139 M
115.24 126.139 L
S
GR
GS
[0.6 0 0 0.6 0 0] CT
0.149 GC
2 setlinecap
1 LJ
0.833 LW
N
634 449 M
628.76 449 L
S
GR
GS
[0.6 0 0 0.6 0 0] CT
0.149 GC
2 setlinecap
1 LJ
0.833 LW
N
634 287.57 M
628.76 287.57 L
S
GR
GS
[0.6 0 0 0.6 0 0] CT
0.149 GC
2 setlinecap
1 LJ
0.833 LW
N
634 126.139 M
628.76 126.139 L
S
GR
GS
[0.6 0 0 0.6 0 0] CT
0.149 GC
2 setlinecap
1 LJ
0.833 LW
N
110 449 M
112.62 449 L
S
GR
GS
[0.6 0 0 0.6 0 0] CT
0.149 GC
2 setlinecap
1 LJ
0.833 LW
N
110 416.714 M
112.62 416.714 L
S
GR
GS
[0.6 0 0 0.6 0 0] CT
0.149 GC
2 setlinecap
1 LJ
0.833 LW
N
110 384.428 M
112.62 384.428 L
S
GR
GS
[0.6 0 0 0.6 0 0] CT
0.149 GC
2 setlinecap
1 LJ
0.833 LW
N
110 352.142 M
112.62 352.142 L
S
GR
GS
[0.6 0 0 0.6 0 0] CT
0.149 GC
2 setlinecap
1 LJ
0.833 LW
N
110 319.856 M
112.62 319.856 L
S
GR
GS
[0.6 0 0 0.6 0 0] CT
0.149 GC
2 setlinecap
1 LJ
0.833 LW
N
110 287.57 M
112.62 287.57 L
S
GR
GS
[0.6 0 0 0.6 0 0] CT
0.149 GC
2 setlinecap
1 LJ
0.833 LW
N
110 255.284 M
112.62 255.284 L
S
GR
GS
[0.6 0 0 0.6 0 0] CT
0.149 GC
2 setlinecap
1 LJ
0.833 LW
N
110 222.997 M
112.62 222.997 L
S
GR
GS
[0.6 0 0 0.6 0 0] CT
0.149 GC
2 setlinecap
1 LJ
0.833 LW
N
110 190.711 M
112.62 190.711 L
S
GR
GS
[0.6 0 0 0.6 0 0] CT
0.149 GC
2 setlinecap
1 LJ
0.833 LW
N
110 158.425 M
112.62 158.425 L
S
GR
GS
[0.6 0 0 0.6 0 0] CT
0.149 GC
2 setlinecap
1 LJ
0.833 LW
N
110 126.139 M
112.62 126.139 L
S
GR
GS
[0.6 0 0 0.6 0 0] CT
0.149 GC
2 setlinecap
1 LJ
0.833 LW
N
110 93.853 M
112.62 93.853 L
S
GR
GS
[0.6 0 0 0.6 0 0] CT
0.149 GC
2 setlinecap
1 LJ
0.833 LW
N
110 61.567 M
112.62 61.567 L
S
GR
GS
[0.6 0 0 0.6 0 0] CT
0.149 GC
2 setlinecap
1 LJ
0.833 LW
N
634 449 M
631.38 449 L
S
GR
GS
[0.6 0 0 0.6 0 0] CT
0.149 GC
2 setlinecap
1 LJ
0.833 LW
N
634 416.714 M
631.38 416.714 L
S
GR
GS
[0.6 0 0 0.6 0 0] CT
0.149 GC
2 setlinecap
1 LJ
0.833 LW
N
634 384.428 M
631.38 384.428 L
S
GR
GS
[0.6 0 0 0.6 0 0] CT
0.149 GC
2 setlinecap
1 LJ
0.833 LW
N
634 352.142 M
631.38 352.142 L
S
GR
GS
[0.6 0 0 0.6 0 0] CT
0.149 GC
2 setlinecap
1 LJ
0.833 LW
N
634 319.856 M
631.38 319.856 L
S
GR
GS
[0.6 0 0 0.6 0 0] CT
0.149 GC
2 setlinecap
1 LJ
0.833 LW
N
634 287.57 M
631.38 287.57 L
S
GR
GS
[0.6 0 0 0.6 0 0] CT
0.149 GC
2 setlinecap
1 LJ
0.833 LW
N
634 255.284 M
631.38 255.284 L
S
GR
GS
[0.6 0 0 0.6 0 0] CT
0.149 GC
2 setlinecap
1 LJ
0.833 LW
N
634 222.997 M
631.38 222.997 L
S
GR
GS
[0.6 0 0 0.6 0 0] CT
0.149 GC
2 setlinecap
1 LJ
0.833 LW
N
634 190.711 M
631.38 190.711 L
S
GR
GS
[0.6 0 0 0.6 0 0] CT
0.149 GC
2 setlinecap
1 LJ
0.833 LW
N
634 158.425 M
631.38 158.425 L
S
GR
GS
[0.6 0 0 0.6 0 0] CT
0.149 GC
2 setlinecap
1 LJ
0.833 LW
N
634 126.139 M
631.38 126.139 L
S
GR
GS
[0.6 0 0 0.6 0 0] CT
0.149 GC
2 setlinecap
1 LJ
0.833 LW
N
634 93.853 M
631.38 93.853 L
S
GR
GS
[0.6 0 0 0.6 0 0] CT
0.149 GC
2 setlinecap
1 LJ
0.833 LW
N
634 61.567 M
631.38 61.567 L
S
GR
GS
[0.6 0 0 0.6 24 277.8] CT
0.149 GC
/Helvetica 26.667 F
GS
[1 0 0 1 0 0] CT
0 0 moveto 
1 -1 scale
(10) t 
GR
GR
GS
[0.6 0 0 0.6 42 270] CT
0.149 GC
/Helvetica 21.333 F
GS
[1 0 0 1 0 0] CT
0 0 moveto 
1 -1 scale
(-10) t 
GR
GR
GS
[0.6 0 0 0.6 31.2 181.2] CT
0.149 GC
/Helvetica 26.667 F
GS
[1 0 0 1 0 0] CT
0 0 moveto 
1 -1 scale
(10) t 
GR
GR
GS
[0.6 0 0 0.6 49.2 173.4] CT
0.149 GC
/Helvetica 21.333 F
GS
[1 0 0 1 0 0] CT
0 0 moveto 
1 -1 scale
(-5) t 
GR
GR
GS
[0.6 0 0 0.6 35.4 84] CT
0.149 GC
/Helvetica 26.667 F
GS
[1 0 0 1 0 0] CT
0 0 moveto 
1 -1 scale
(10) t 
GR
GR
GS
[0.6 0 0 0.6 53.4 76.2] CT
0.149 GC
/Helvetica 21.333 F
GS
[1 0 0 1 0 0] CT
0 0 moveto 
1 -1 scale
(0) t 
GR
GR
GS
[0 -0.6 0.6 0 21.2 146.39988] CT
0.149 GC
N
-11.911 -10.232 M
-12.145 -10.232 -12.145 -10.498 QT
-12.145 -10.638 -12.082 -10.701 QT
-11.301 -12.044 -10.207 -13.271 QT
-9.114 -14.498 -7.715 -15.748 QT
-6.317 -16.998 -4.911 -18.263 QT
-3.504 -19.529 -2.629 -20.498 QT
-2.739 -20.498 L
-3.379 -20.498 -4.614 -20.912 QT
-5.848 -21.326 -6.551 -21.326 QT
-7.317 -21.326 -8.036 -20.99 QT
-8.754 -20.654 -8.957 -19.966 QT
-9.004 -19.748 -9.176 -19.748 QT
-9.536 -19.748 L
-9.77 -19.748 -9.77 -20.044 QT
-9.77 -20.138 L
-9.536 -20.982 -9.02 -21.716 QT
-8.504 -22.451 -7.747 -22.912 QT
-6.989 -23.373 -6.161 -23.373 QT
-5.582 -23.373 -5.2 -23.115 QT
-4.817 -22.857 -4.309 -22.302 QT
-3.801 -21.748 -3.481 -21.505 QT
-3.161 -21.263 -2.676 -21.263 QT
-2.051 -21.263 -1.543 -21.841 QT
-1.036 -22.419 -0.551 -23.294 QT
-0.457 -23.373 -0.332 -23.373 QT
0.011 -23.373 L
0.105 -23.373 0.168 -23.302 QT
0.23 -23.232 0.23 -23.123 QT
0.23 -23.029 0.183 -22.935 QT
-0.598 -21.591 -1.637 -20.419 QT
-2.676 -19.248 -4.356 -17.74 QT
-6.036 -16.232 -7.192 -15.193 QT
-8.348 -14.154 -9.348 -13.06 QT
-9.129 -13.107 -8.739 -13.107 QT
-8.036 -13.107 -6.809 -12.701 QT
-5.582 -12.294 -4.926 -12.294 QT
-4.192 -12.294 -3.457 -12.607 QT
-2.723 -12.919 -2.184 -13.49 QT
-1.645 -14.06 -1.473 -14.794 QT
-1.395 -14.998 -1.239 -14.998 QT
-0.879 -14.998 L
-0.77 -14.998 -0.7 -14.904 QT
-0.629 -14.81 -0.629 -14.716 QT
-0.629 -14.685 -0.661 -14.623 QT
-0.926 -13.513 -1.59 -12.521 QT
-2.254 -11.529 -3.223 -10.88 QT
-4.192 -10.232 -5.301 -10.232 QT
-5.848 -10.232 -6.231 -10.49 QT
-6.614 -10.748 -7.137 -11.302 QT
-7.661 -11.857 -7.981 -12.107 QT
-8.301 -12.357 -8.77 -12.357 QT
-10.223 -12.357 -11.364 -10.326 QT
-11.457 -10.232 -11.567 -10.232 QT
-11.911 -10.232 L
cp
f
GR
GS
[0 -0.6 0.6 0 21.2 146.39988] CT
0.149 GC
N
2.646 -21.205 M
2.646 -21.767 L
2.646 -21.814 2.693 -21.877 QT
5.943 -25.486 L
6.693 -26.299 7.154 -26.838 QT
7.615 -27.377 8.06 -28.088 QT
8.505 -28.799 8.771 -29.525 QT
9.037 -30.252 9.037 -31.08 QT
9.037 -31.939 8.716 -32.728 QT
8.396 -33.517 7.763 -33.986 QT
7.13 -34.455 6.24 -34.455 QT
5.333 -34.455 4.607 -33.908 QT
3.88 -33.361 3.583 -32.486 QT
3.662 -32.502 3.802 -32.502 QT
4.271 -32.502 4.607 -32.189 QT
4.943 -31.877 4.943 -31.361 QT
4.943 -30.892 4.607 -30.557 QT
4.271 -30.221 3.802 -30.221 QT
3.318 -30.221 2.982 -30.564 QT
2.646 -30.908 2.646 -31.361 QT
2.646 -32.158 2.943 -32.846 QT
3.24 -33.533 3.802 -34.072 QT
4.365 -34.611 5.06 -34.9 QT
5.755 -35.189 6.552 -35.189 QT
7.755 -35.189 8.787 -34.682 QT
9.818 -34.174 10.427 -33.244 QT
11.037 -32.314 11.037 -31.08 QT
11.037 -30.174 10.638 -29.353 QT
10.24 -28.533 9.615 -27.861 QT
8.99 -27.189 8.013 -26.338 QT
7.037 -25.486 6.724 -25.189 QT
4.349 -22.908 L
6.365 -22.908 L
7.849 -22.908 8.849 -22.932 QT
9.849 -22.955 9.912 -23.017 QT
10.162 -23.283 10.412 -24.955 QT
11.037 -24.955 L
10.443 -21.205 L
2.646 -21.205 L
cp
f
GR
GS
[0 -0.6 0.6 0 21.2 146.39988] CT
0.149 GC
N
2.262 -3.279 M
2.262 -4.014 L
4.887 -4.014 4.887 -4.686 QT
4.887 -15.701 L
3.793 -15.186 2.137 -15.186 QT
2.137 -15.92 L
4.715 -15.92 6.028 -17.264 QT
6.325 -17.264 L
6.387 -17.264 6.457 -17.209 QT
6.528 -17.154 6.528 -17.076 QT
6.528 -4.686 L
6.528 -4.014 9.153 -4.014 QT
9.153 -3.279 L
2.262 -3.279 L
cp
f
GR
GS
[0.6 0 0 0.6 0 0] CT
0 0 1 RC
[3 3] 0 setdash
2 LJ
3.333 LW
N
110 42.129 M
113.517 112.196 L
117.034 250.485 L
120.55 110.953 L
124.067 81.11 L
127.584 88.988 L
131.101 134.437 L
134.617 112.335 L
138.134 92.615 L
141.651 95.999 L
145.168 124.721 L
148.685 126.787 L
152.201 102.745 L
155.718 103.797 L
159.235 128.623 L
162.752 139.901 L
166.268 113.498 L
169.785 112.952 L
173.302 135.417 L
176.819 155.671 L
180.336 125.57 L
183.852 123.802 L
187.369 145.146 L
190.886 173.788 L
194.403 140.239 L
197.919 137.542 L
201.436 159.656 L
204.953 194.016 L
208.47 160.493 L
211.987 157.748 L
215.503 187.53 L
219.02 212.987 L
222.537 203.097 L
226.054 209.341 L
229.57 264.284 L
233.087 328.934 L
236.604 263.591 L
240.121 269.407 L
243.638 283.223 L
247.154 312.644 L
250.671 413.112 L
254.188 345.741 L
257.705 348.024 L
261.221 364.373 L
264.738 396.074 L
267.584 449.049 L
S
GR
GS
[0.6 0 0 0.6 0 0] CT
0 0 1 RC
[3 3] 0 setdash
2 LJ
3.333 LW
N
269.334 449.049 M
271.772 420.812 L
275.289 425.977 L
278.805 444.436 L
279.26 449.049 L
S
GR
GS
[0.6 0 0 0.6 0 0] CT
[12 12] 0 setdash
2 LJ
3.333 LW
N
110 42.129 M
113.517 112.196 L
117.034 250.485 L
120.55 110.953 L
124.067 81.11 L
127.584 88.988 L
131.101 134.437 L
134.617 112.335 L
138.134 92.615 L
141.651 95.999 L
145.168 124.721 L
148.685 126.787 L
152.201 102.745 L
155.718 103.797 L
159.235 128.623 L
162.752 139.901 L
166.268 113.498 L
169.785 112.952 L
173.302 135.417 L
176.819 155.671 L
180.336 125.57 L
183.852 123.802 L
187.369 145.146 L
190.886 173.788 L
194.403 140.239 L
197.919 137.542 L
201.436 159.656 L
204.953 194.016 L
208.47 160.493 L
211.987 157.748 L
215.503 187.53 L
219.02 212.987 L
222.537 203.097 L
226.054 209.216 L
229.57 294.106 L
233.087 383.635 L
236.604 405.973 L
240.121 402.387 L
243.638 401.987 L
247.154 400.714 L
250.671 399.27 L
254.188 397.789 L
257.705 396.801 L
261.221 395.459 L
264.738 394.1 L
268.255 392.74 L
271.772 391.379 L
275.289 390.019 L
278.805 388.658 L
282.322 387.297 L
285.839 385.934 L
289.356 384.571 L
292.872 383.202 L
296.389 381.833 L
299.906 380.453 L
303.423 379.069 L
306.94 377.658 L
310.456 376.212 L
313.973 374.629 L
317.49 372.723 L
321.007 372.3 L
324.523 370.985 L
328.04 369.629 L
331.557 367.966 L
335.074 368.298 L
338.591 352.072 L
342.107 308.414 L
345.624 291.914 L
349.141 292.666 L
352.658 291.486 L
356.174 293.333 L
359.691 296.216 L
363.208 293.569 L
366.725 294.905 L
370.242 294.427 L
373.758 293.332 L
377.275 294.967 L
380.792 293.86 L
384.309 294.092 L
387.826 294.724 L
391.342 293.713 L
394.859 294.498 L
398.376 294.277 L
401.893 293.922 L
405.409 294.565 L
408.926 294.036 L
412.443 294.189 L
415.96 294.408 L
419.477 293.999 L
422.993 294.358 L
426.51 294.225 L
430.027 294.107 L
433.544 294.367 L
437.06 294.125 L
440.577 294.228 L
444.094 294.29 L
447.611 294.126 L
451.128 294.29 L
454.644 294.209 L
458.161 294.181 L
461.678 294.282 L
465.195 294.174 L
468.711 294.232 L
472.228 294.245 L
475.745 294.181 L
479.262 294.254 L
482.779 294.21 L
486.295 294.209 L
489.812 294.246 L
493.329 294.199 L
496.846 294.229 L
500.362 294.229 L
503.879 294.204 L
507.396 294.237 L
510.913 294.214 L
514.43 294.218 L
517.946 294.23 L
521.463 294.211 L
524.98 294.226 L
528.497 294.223 L
532.013 294.214 L
535.53 294.228 L
539.047 294.217 L
542.564 294.221 L
546.081 294.224 L
549.597 294.217 L
553.114 294.223 L
556.631 294.222 L
560.148 294.218 L
563.664 294.224 L
567.181 294.219 L
570.698 294.222 L
574.215 294.222 L
577.732 294.22 L
581.248 294.222 L
584.765 294.221 L
588.282 294.22 L
591.799 294.223 L
595.315 294.219 L
598.832 294.222 L
602.349 294.221 L
605.866 294.221 L
609.383 294.221 L
612.899 294.221 L
616.416 294.22 L
619.933 294.222 L
623.45 294.22 L
626.966 294.222 L
630.483 294.221 L
634 294.221 L
S
GR
GS
[0.6 0 0 0.6 0 0] CT
1 0 0 RC
[3 3] 0 setdash
2 LJ
3.333 LW
N
110 42.129 M
113.517 112.237 L
117.034 215.623 L
120.55 109.651 L
124.067 80.864 L
127.584 88.691 L
131.101 136.422 L
134.617 109.778 L
138.134 91.502 L
141.651 95.034 L
145.168 126.17 L
148.685 120.884 L
152.201 100.006 L
155.718 101.556 L
159.235 125.727 L
162.752 135.4 L
166.268 108.699 L
169.785 108.124 L
173.302 127.722 L
176.819 153.075 L
180.336 117.804 L
183.852 114.93 L
187.369 130.897 L
190.886 177.275 L
194.403 127.342 L
197.919 122.022 L
201.436 134.888 L
204.953 233.931 L
208.47 137.366 L
211.987 129.4 L
215.503 139.514 L
219.02 203.988 L
222.537 147.971 L
226.054 137.066 L
229.57 144.658 L
233.087 188.642 L
236.604 159.306 L
240.121 145.023 L
243.638 150.242 L
247.154 183.862 L
250.671 171.609 L
254.188 153.283 L
257.705 156.211 L
261.221 183.031 L
264.738 185.291 L
268.255 161.863 L
271.772 162.526 L
275.289 184.319 L
278.805 201.158 L
282.322 170.792 L
285.839 169.161 L
289.356 186.957 L
292.872 221.146 L
296.389 180.109 L
299.906 176.098 L
303.423 190.546 L
306.94 252.553 L
310.456 189.869 L
313.973 183.326 L
317.49 194.854 L
321.007 288.575 L
324.523 200.153 L
328.04 190.84 L
331.557 199.737 L
335.074 252.254 L
338.591 211.081 L
342.107 198.643 L
345.624 205.097 L
349.141 243.526 L
352.658 222.837 L
356.174 206.742 L
359.691 210.869 L
363.208 240.974 L
366.725 235.726 L
370.242 215.15 L
373.758 217.006 L
377.275 241.283 L
380.792 250.302 L
384.309 223.892 L
387.826 223.476 L
391.342 243.276 L
394.859 267.744 L
398.376 232.998 L
401.893 230.255 L
405.409 246.401 L
408.926 291.384 L
412.443 242.517 L
415.96 237.331 L
419.477 250.353 L
422.993 342.88 L
426.51 252.513 L
430.027 244.694 L
433.544 254.947 L
437.06 321.226 L
440.577 263.084 L
444.094 252.345 L
447.611 260.066 L
451.128 304.774 L
454.644 274.375 L
458.161 260.286 L
461.678 265.628 L
465.195 299.684 L
468.711 286.619 L
472.228 268.529 L
475.745 271.578 L
479.262 298.705 L
482.779 300.213 L
486.295 277.092 L
489.812 277.876 L
493.329 299.905 L
496.846 315.932 L
500.362 286.002 L
503.879 284.494 L
507.396 302.483 L
510.913 335.609 L
514.43 295.297 L
517.946 291.415 L
521.463 306.028 L
524.98 365.902 L
528.497 305.031 L
532.013 298.628 L
535.53 310.303 L
539.047 410.133 L
542.564 315.285 L
546.081 306.127 L
549.597 315.158 L
553.114 368.746 L
556.631 326.175 L
560.148 313.914 L
563.664 320.495 L
567.181 359.477 L
570.698 337.881 L
574.215 321.997 L
577.732 326.246 L
581.248 356.715 L
584.765 350.699 L
588.282 330.389 L
591.799 332.365 L
595.315 356.91 L
598.832 365.164 L
602.349 339.112 L
605.866 338.817 L
609.383 358.831 L
612.899 382.404 L
616.416 348.198 L
619.933 345.581 L
623.45 361.905 L
626.966 405.534 L
630.483 357.693 L
634 352.641 L
S
GR
GS
[0.6 0 0 0.6 0 0] CT
1 GC
N
621 145 M
621 52 L
469 52 L
469 145 L
cp
f
GR
GS
[0.6 0 0 0.6 316.67703 41.37831] CT
N
0.578 3.979 M
0.469 3.979 0.352 3.846 QT
0.234 3.713 0.234 3.604 QT
0.234 3.401 2.234 1.588 QT
2.234 1.479 2.227 1.408 QT
2.219 1.338 2.203 1.276 QT
2.203 0.244 2.367 -0.834 QT
2.531 -1.912 2.82 -2.974 QT
3.109 -4.037 3.539 -5.201 QT
3.969 -6.365 4.422 -7.224 QT
5.188 -8.803 6.102 -9.982 QT
7.016 -11.162 8.141 -11.162 QT
8.891 -11.162 9.219 -10.639 QT
9.547 -10.115 9.547 -9.334 QT
9.547 -4.943 3.719 0.994 QT
3.625 2.026 3.625 2.463 QT
3.625 5.463 5 5.463 QT
5.578 5.463 6.156 5.151 QT
6.734 4.838 7.156 4.479 QT
7.578 4.119 8.313 3.401 QT
8.359 3.354 8.453 3.354 QT
8.578 3.354 8.695 3.494 QT
8.813 3.635 8.813 3.76 QT
8.813 3.854 8.703 3.932 QT
7.641 4.979 6.789 5.549 QT
5.938 6.119 4.953 6.119 QT
3.688 6.119 3.07 5.033 QT
2.453 3.947 2.281 2.447 QT
1.641 3.088 0.719 3.932 QT
0.688 3.979 0.578 3.979 QT
cp
3.922 -0.146 M
5.188 -1.506 6.305 -3.006 QT
7.422 -4.506 8.164 -6.162 QT
8.906 -7.818 8.906 -9.412 QT
8.906 -10.537 8.109 -10.537 QT
7.25 -10.537 6.359 -8.498 QT
5.469 -6.459 4.836 -4.076 QT
4.203 -1.693 3.922 -0.146 QT
cp
f
GR
GS
[0.6 0 0 0.6 0 0] CT
0 0 1 RC
[3 3] 0 setdash
2 LJ
3.333 LW
N
474.004 68.964 M
524.042 68.964 L
S
GR
GS
[0.6 0 0 0.6 316.67703 59.1] CT
N
4.484 6.026 M
3.422 6.026 2.594 5.518 QT
1.766 5.01 1.32 4.143 QT
0.875 3.276 0.875 2.229 QT
0.875 1.119 1.375 -0.115 QT
1.875 -1.349 2.75 -2.365 QT
3.625 -3.381 4.727 -3.982 QT
5.828 -4.584 6.984 -4.584 QT
13.031 -4.584 L
13.281 -4.584 13.453 -4.42 QT
13.625 -4.256 13.625 -3.974 QT
13.625 -3.631 13.375 -3.365 QT
13.125 -3.099 12.781 -3.099 QT
9.844 -3.099 L
10.531 -2.068 10.531 -0.599 QT
10.531 0.604 10.063 1.776 QT
9.594 2.947 8.766 3.916 QT
7.938 4.885 6.828 5.455 QT
5.719 6.026 4.484 6.026 QT
cp
4.516 5.401 M
5.828 5.401 6.844 4.369 QT
7.859 3.338 8.398 1.861 QT
8.938 0.385 8.938 -0.881 QT
8.938 -1.912 8.367 -2.506 QT
7.797 -3.099 6.781 -3.099 QT
5.375 -3.099 4.398 -2.162 QT
3.422 -1.224 2.938 0.19 QT
2.453 1.604 2.453 2.916 QT
2.453 3.947 3 4.674 QT
3.547 5.401 4.516 5.401 QT
cp
f
GR
GS
[0.6 0 0 0.6 0 0] CT
[12 12] 0 setdash
2 LJ
3.333 LW
N
474.004 98.5 M
524.042 98.5 L
S
GR
GS
[0.6 0 0 0.6 316.67703 76.8217] CT
N
2.594 2.901 M
2.594 -2.396 L
2.594 -3.037 2.398 -3.326 QT
2.203 -3.615 1.844 -3.678 QT
1.484 -3.74 0.719 -3.74 QT
0.719 -4.584 L
4.344 -4.849 L
4.344 2.901 L
4.344 3.838 4.484 4.361 QT
4.625 4.885 5.063 5.143 QT
5.5 5.401 6.453 5.401 QT
7.75 5.401 8.508 4.322 QT
9.266 3.244 9.266 1.869 QT
9.266 -2.396 L
9.266 -3.037 9.07 -3.326 QT
8.875 -3.615 8.516 -3.678 QT
8.156 -3.74 7.391 -3.74 QT
7.391 -4.584 L
11.016 -4.849 L
11.016 3.572 L
11.016 4.213 11.211 4.502 QT
11.406 4.791 11.766 4.854 QT
12.125 4.916 12.891 4.916 QT
12.891 5.76 L
9.344 6.026 L
9.344 3.994 L
8.891 4.901 8.094 5.463 QT
7.297 6.026 6.344 6.026 QT
4.625 6.026 3.609 5.291 QT
2.594 4.557 2.594 2.901 QT
cp
f
GR
GS
[0.6 0 0 0.6 316.67703 76.8217] CT
N
14.052 5.76 M
14.052 4.916 L
14.865 4.916 15.396 4.783 QT
15.927 4.651 15.927 4.151 QT
15.927 -2.396 L
15.927 -3.037 15.732 -3.326 QT
15.536 -3.615 15.177 -3.678 QT
14.818 -3.74 14.052 -3.74 QT
14.052 -4.584 L
17.536 -4.849 L
17.536 -2.506 L
18.005 -3.537 18.951 -4.193 QT
19.896 -4.849 21.005 -4.849 QT
22.677 -4.849 23.513 -4.053 QT
24.349 -3.256 24.349 -1.615 QT
24.349 4.151 L
24.349 4.651 24.88 4.783 QT
25.411 4.916 26.224 4.916 QT
26.224 5.76 L
20.724 5.76 L
20.724 4.916 L
21.552 4.916 22.076 4.783 QT
22.599 4.651 22.599 4.151 QT
22.599 -1.537 L
22.599 -2.709 22.263 -3.467 QT
21.927 -4.224 20.865 -4.224 QT
19.474 -4.224 18.576 -3.115 QT
17.677 -2.006 17.677 -0.584 QT
17.677 4.151 L
17.677 4.651 18.208 4.783 QT
18.74 4.916 19.552 4.916 QT
19.552 5.76 L
14.052 5.76 L
cp
f
GR
GS
[0.6 0 0 0.6 316.67703 76.8217] CT
N
27.464 5.838 M
27.464 1.916 L
27.464 1.729 27.682 1.729 QT
27.964 1.729 L
28.104 1.729 28.151 1.916 QT
28.823 5.401 31.385 5.401 QT
32.526 5.401 33.292 4.885 QT
34.057 4.369 34.057 3.291 QT
34.057 2.51 33.464 1.963 QT
32.87 1.416 32.042 1.229 QT
30.448 0.901 L
29.635 0.729 28.971 0.369 QT
28.307 0.01 27.885 -0.599 QT
27.464 -1.209 27.464 -2.006 QT
27.464 -3.053 28.018 -3.724 QT
28.573 -4.396 29.464 -4.701 QT
30.354 -5.006 31.385 -5.006 QT
32.62 -5.006 33.542 -4.349 QT
34.229 -4.943 L
34.229 -5.006 34.339 -5.006 QT
34.526 -5.006 L
34.589 -5.006 34.651 -4.935 QT
34.714 -4.865 34.714 -4.803 QT
34.714 -1.662 L
34.714 -1.443 34.526 -1.443 QT
34.229 -1.443 L
34.01 -1.443 34.01 -1.662 QT
34.01 -2.912 33.315 -3.678 QT
32.62 -4.443 31.37 -4.443 QT
30.292 -4.443 29.503 -4.045 QT
28.714 -3.646 28.714 -2.662 QT
28.714 -2.006 29.276 -1.576 QT
29.839 -1.146 30.604 -0.959 QT
32.229 -0.646 L
33.057 -0.459 33.768 -0.014 QT
34.479 0.432 34.893 1.111 QT
35.307 1.791 35.307 2.635 QT
35.307 3.51 35.01 4.151 QT
34.714 4.791 34.175 5.213 QT
33.635 5.635 32.909 5.83 QT
32.182 6.026 31.385 6.026 QT
29.885 6.026 28.823 5.026 QT
27.948 5.979 L
27.948 6.026 27.823 6.026 QT
27.682 6.026 L
27.464 6.026 27.464 5.838 QT
cp
f
GR
GS
[0.6 0 0 0.6 316.67703 76.8217] CT
N
38.587 2.869 M
38.587 -3.74 L
36.587 -3.74 L
36.587 -4.365 L
38.165 -4.365 38.899 -5.834 QT
39.633 -7.303 39.633 -9.006 QT
40.337 -9.006 L
40.337 -4.584 L
43.712 -4.584 L
43.712 -3.74 L
40.337 -3.74 L
40.337 2.822 L
40.337 3.822 40.665 4.572 QT
40.993 5.322 41.868 5.322 QT
42.68 5.322 43.047 4.533 QT
43.415 3.744 43.415 2.822 QT
43.415 1.416 L
44.102 1.416 L
44.102 2.869 L
44.102 3.619 43.829 4.354 QT
43.555 5.088 43.016 5.557 QT
42.477 6.026 41.696 6.026 QT
40.258 6.026 39.422 5.166 QT
38.587 4.307 38.587 2.869 QT
cp
f
GR
GS
[0.6 0 0 0.6 316.67703 76.8217] CT
N
46.436 3.401 M
46.436 1.979 47.561 1.08 QT
48.686 0.182 50.256 -0.185 QT
51.826 -0.553 53.248 -0.553 QT
53.248 -1.537 L
53.248 -2.24 52.943 -2.889 QT
52.639 -3.537 52.068 -3.951 QT
51.498 -4.365 50.795 -4.365 QT
49.201 -4.365 48.373 -3.646 QT
48.826 -3.646 49.131 -3.303 QT
49.436 -2.959 49.436 -2.506 QT
49.436 -2.021 49.092 -1.685 QT
48.748 -1.349 48.279 -1.349 QT
47.795 -1.349 47.459 -1.685 QT
47.123 -2.021 47.123 -2.506 QT
47.123 -3.771 48.271 -4.389 QT
49.42 -5.006 50.795 -5.006 QT
51.779 -5.006 52.764 -4.584 QT
53.748 -4.162 54.373 -3.389 QT
54.998 -2.615 54.998 -1.584 QT
54.998 3.807 L
54.998 4.276 55.193 4.674 QT
55.389 5.072 55.811 5.072 QT
56.217 5.072 56.412 4.674 QT
56.607 4.276 56.607 3.807 QT
56.607 2.276 L
57.311 2.276 L
57.311 3.807 L
57.311 4.354 57.029 4.838 QT
56.748 5.322 56.271 5.611 QT
55.795 5.901 55.248 5.901 QT
54.545 5.901 54.029 5.354 QT
53.514 4.807 53.467 4.057 QT
53.014 4.963 52.146 5.494 QT
51.279 6.026 50.295 6.026 QT
49.389 6.026 48.498 5.76 QT
47.607 5.494 47.021 4.908 QT
46.436 4.322 46.436 3.401 QT
cp
48.373 3.401 M
48.373 4.244 48.998 4.822 QT
49.623 5.401 50.467 5.401 QT
51.232 5.401 51.865 5.01 QT
52.498 4.619 52.873 3.955 QT
53.248 3.291 53.248 2.541 QT
53.248 0.057 L
52.154 0.057 51.014 0.408 QT
49.873 0.76 49.123 1.526 QT
48.373 2.291 48.373 3.401 QT
cp
f
GR
GS
[0.6 0 0 0.6 316.67703 76.8217] CT
N
59.967 5.76 M
59.967 -8.443 L
59.967 -9.084 59.771 -9.373 QT
59.576 -9.662 59.217 -9.724 QT
58.857 -9.787 58.092 -9.787 QT
58.092 -10.631 L
61.639 -10.896 L
61.639 -3.381 L
62.045 -3.834 62.576 -4.162 QT
63.107 -4.49 63.717 -4.67 QT
64.326 -4.849 64.951 -4.849 QT
66.029 -4.849 66.951 -4.412 QT
67.873 -3.974 68.553 -3.217 QT
69.232 -2.459 69.615 -1.467 QT
69.998 -0.474 69.998 0.572 QT
69.998 2.026 69.287 3.283 QT
68.576 4.541 67.35 5.283 QT
66.123 6.026 64.67 6.026 QT
63.748 6.026 62.896 5.557 QT
62.045 5.088 61.482 4.322 QT
60.654 5.76 L
59.967 5.76 L
cp
61.717 3.401 M
62.107 4.276 62.857 4.838 QT
63.607 5.401 64.529 5.401 QT
65.764 5.401 66.529 4.682 QT
67.295 3.963 67.6 2.877 QT
67.904 1.791 67.904 0.572 QT
67.904 -1.443 67.389 -2.506 QT
67.154 -2.974 66.748 -3.373 QT
66.342 -3.771 65.842 -3.998 QT
65.342 -4.224 64.795 -4.224 QT
63.826 -4.224 63.006 -3.717 QT
62.186 -3.209 61.717 -2.349 QT
61.717 3.401 L
cp
f
GR
GS
[0.6 0 0 0.6 316.67703 76.8217] CT
N
71.535 5.76 M
71.535 4.916 L
72.363 4.916 72.886 4.783 QT
73.41 4.651 73.41 4.151 QT
73.41 -8.443 L
73.41 -9.084 73.222 -9.373 QT
73.035 -9.662 72.667 -9.724 QT
72.3 -9.787 71.535 -9.787 QT
71.535 -10.631 L
75.097 -10.896 L
75.097 4.151 L
75.097 4.651 75.628 4.783 QT
76.16 4.916 76.972 4.916 QT
76.972 5.76 L
71.535 5.76 L
cp
f
GR
GS
[0.6 0 0 0.6 316.67703 76.8217] CT
N
83.451 6.026 M
81.982 6.026 80.756 5.26 QT
79.529 4.494 78.834 3.213 QT
78.139 1.932 78.139 0.494 QT
78.139 -0.912 78.779 -2.178 QT
79.42 -3.443 80.561 -4.224 QT
81.701 -5.006 83.107 -5.006 QT
84.201 -5.006 85.022 -4.631 QT
85.842 -4.256 86.365 -3.599 QT
86.889 -2.943 87.162 -2.053 QT
87.436 -1.162 87.436 -0.099 QT
87.436 0.213 87.186 0.213 QT
80.232 0.213 L
80.232 0.479 L
80.232 2.463 81.037 3.893 QT
81.842 5.322 83.654 5.322 QT
84.389 5.322 85.022 4.994 QT
85.654 4.666 86.115 4.08 QT
86.576 3.494 86.732 2.822 QT
86.764 2.744 86.826 2.682 QT
86.889 2.619 86.967 2.619 QT
87.186 2.619 L
87.436 2.619 87.436 2.916 QT
87.092 4.276 85.967 5.151 QT
84.842 6.026 83.451 6.026 QT
cp
80.264 -0.381 M
85.732 -0.381 L
85.732 -1.287 85.482 -2.209 QT
85.232 -3.131 84.647 -3.748 QT
84.061 -4.365 83.107 -4.365 QT
81.748 -4.365 81.006 -3.092 QT
80.264 -1.818 80.264 -0.381 QT
cp
f
GR
GS
[0.6 0 0 0.6 0 0] CT
1 0 0 RC
[3 3] 0 setdash
2 LJ
3.333 LW
N
474.004 128.036 M
524.042 128.036 L
S
GR
GS
[0.6 0 0 0.6 0 0] CT
0.149 GC
10.0 ML
0.833 LW
N
469 145 M
469 52 L
621 52 L
621 145 L
cp
S
GR
%%Trailer
%%Pages: 1
%%EOF
