%!PS-Adobe-3.0 EPSF-3.0
%%Creator: (MATLAB, The Mathworks, Inc. Version 9.9.0.1570001 \(R2020b\) Update 4. Operating System: Windows 10)
%%Title: Figure/closedloop_tank.eps
%%CreationDate: 2023-01-04T19:34:25
%%Pages: (atend)
%%BoundingBox:     1     6   382   292
%%LanguageLevel: 3
%%EndComments
%%BeginProlog
%%BeginResource: procset (Apache XML Graphics Std ProcSet) 1.2 0
%%Version: 1.2 0
%%Copyright: (Copyright 2001-2003,2010 The Apache Software Foundation. License terms: http://www.apache.org/licenses/LICENSE-2.0)
/bd{bind def}bind def
/ld{load def}bd
/GR/grestore ld
/GS/gsave ld
/RM/rmoveto ld
/C/curveto ld
/t/show ld
/L/lineto ld
/ML/setmiterlimit ld
/CT/concat ld
/f/fill ld
/N/newpath ld
/S/stroke ld
/CC/setcmykcolor ld
/A/ashow ld
/cp/closepath ld
/RC/setrgbcolor ld
/LJ/setlinejoin ld
/GC/setgray ld
/LW/setlinewidth ld
/M/moveto ld
/re {4 2 roll M
1 index 0 rlineto
0 exch rlineto
neg 0 rlineto
cp } bd
/_ctm matrix def
/_tm matrix def
/BT { _ctm currentmatrix pop matrix _tm copy pop 0 0 moveto } bd
/ET { _ctm setmatrix } bd
/iTm { _ctm setmatrix _tm concat } bd
/Tm { _tm astore pop iTm 0 0 moveto } bd
/ux 0.0 def
/uy 0.0 def
/F {
  /Tp exch def
  /Tf exch def
  Tf findfont Tp scalefont setfont
  /cf Tf def  /cs Tp def
} bd
/ULS {currentpoint /uy exch def /ux exch def} bd
/ULE {
  /Tcx currentpoint pop def
  gsave
  newpath
  cf findfont cs scalefont dup
  /FontMatrix get 0 get /Ts exch def /FontInfo get dup
  /UnderlinePosition get Ts mul /To exch def
  /UnderlineThickness get Ts mul /Tt exch def
  ux uy To add moveto  Tcx uy To add lineto
  Tt setlinewidth stroke
  grestore
} bd
/OLE {
  /Tcx currentpoint pop def
  gsave
  newpath
  cf findfont cs scalefont dup
  /FontMatrix get 0 get /Ts exch def /FontInfo get dup
  /UnderlinePosition get Ts mul /To exch def
  /UnderlineThickness get Ts mul /Tt exch def
  ux uy To add cs add moveto Tcx uy To add cs add lineto
  Tt setlinewidth stroke
  grestore
} bd
/SOE {
  /Tcx currentpoint pop def
  gsave
  newpath
  cf findfont cs scalefont dup
  /FontMatrix get 0 get /Ts exch def /FontInfo get dup
  /UnderlinePosition get Ts mul /To exch def
  /UnderlineThickness get Ts mul /Tt exch def
  ux uy To add cs 10 mul 26 idiv add moveto Tcx uy To add cs 10 mul 26 idiv add lineto
  Tt setlinewidth stroke
  grestore
} bd
/QT {
/Y22 exch store
/X22 exch store
/Y21 exch store
/X21 exch store
currentpoint
/Y21 load 2 mul add 3 div exch
/X21 load 2 mul add 3 div exch
/X21 load 2 mul /X22 load add 3 div
/Y21 load 2 mul /Y22 load add 3 div
/X22 load /Y22 load curveto
} bd
/SSPD {
dup length /d exch dict def
{
/v exch def
/k exch def
currentpagedevice k known {
/cpdv currentpagedevice k get def
v cpdv ne {
/upd false def
/nullv v type /nulltype eq def
/nullcpdv cpdv type /nulltype eq def
nullv nullcpdv or
{
/upd true def
} {
/sametype v type cpdv type eq def
sametype {
v type /arraytype eq {
/vlen v length def
/cpdvlen cpdv length def
vlen cpdvlen eq {
0 1 vlen 1 sub {
/i exch def
/obj v i get def
/cpdobj cpdv i get def
obj cpdobj ne {
/upd true def
exit
} if
} for
} {
/upd true def
} ifelse
} {
v type /dicttype eq {
v {
/dv exch def
/dk exch def
/cpddv cpdv dk get def
dv cpddv ne {
/upd true def
exit
} if
} forall
} {
/upd true def
} ifelse
} ifelse
} if
} ifelse
upd true eq {
d k v put
} if
} if
} if
} forall
d length 0 gt {
d setpagedevice
} if
} bd
/RE { % /NewFontName [NewEncodingArray] /FontName RE -
  findfont dup length dict begin
  {
    1 index /FID ne
    {def} {pop pop} ifelse
  } forall
  /Encoding exch def
  /FontName 1 index def
  currentdict definefont pop
  end
} bind def
%%EndResource
%%BeginResource: procset (Apache XML Graphics EPS ProcSet) 1.0 0
%%Version: 1.0 0
%%Copyright: (Copyright 2002-2003 The Apache Software Foundation. License terms: http://www.apache.org/licenses/LICENSE-2.0)
/BeginEPSF { %def
/b4_Inc_state save def         % Save state for cleanup
/dict_count countdictstack def % Count objects on dict stack
/op_count count 1 sub def      % Count objects on operand stack
userdict begin                 % Push userdict on dict stack
/showpage { } def              % Redefine showpage, { } = null proc
0 setgray 0 setlinecap         % Prepare graphics state
1 setlinewidth 0 setlinejoin
10 setmiterlimit [ ] 0 setdash newpath
/languagelevel where           % If level not equal to 1 then
{pop languagelevel             % set strokeadjust and
1 ne                           % overprint to their defaults.
{false setstrokeadjust false setoverprint
} if
} if
} bd
/EndEPSF { %def
count op_count sub {pop} repeat            % Clean up stacks
countdictstack dict_count sub {end} repeat
b4_Inc_state restore
} bd
%%EndResource
%FOPBeginFontDict
%%IncludeResource: font Courier-Oblique
%%IncludeResource: font Courier-BoldOblique
%%IncludeResource: font Courier-Bold
%%IncludeResource: font ZapfDingbats
%%IncludeResource: font Symbol
%%IncludeResource: font Helvetica
%%IncludeResource: font Helvetica-Oblique
%%IncludeResource: font Helvetica-Bold
%%IncludeResource: font Helvetica-BoldOblique
%%IncludeResource: font Times-Roman
%%IncludeResource: font Times-Italic
%%IncludeResource: font Times-Bold
%%IncludeResource: font Times-BoldItalic
%%IncludeResource: font Courier
%FOPEndFontDict
%%BeginResource: encoding WinAnsiEncoding
/WinAnsiEncoding [
/.notdef /.notdef /.notdef /.notdef /.notdef
/.notdef /.notdef /.notdef /.notdef /.notdef
/.notdef /.notdef /.notdef /.notdef /.notdef
/.notdef /.notdef /.notdef /.notdef /.notdef
/.notdef /.notdef /.notdef /.notdef /.notdef
/.notdef /.notdef /.notdef /.notdef /.notdef
/.notdef /.notdef /space /exclam /quotedbl
/numbersign /dollar /percent /ampersand /quotesingle
/parenleft /parenright /asterisk /plus /comma
/hyphen /period /slash /zero /one
/two /three /four /five /six
/seven /eight /nine /colon /semicolon
/less /equal /greater /question /at
/A /B /C /D /E
/F /G /H /I /J
/K /L /M /N /O
/P /Q /R /S /T
/U /V /W /X /Y
/Z /bracketleft /backslash /bracketright /asciicircum
/underscore /quoteleft /a /b /c
/d /e /f /g /h
/i /j /k /l /m
/n /o /p /q /r
/s /t /u /v /w
/x /y /z /braceleft /bar
/braceright /asciitilde /bullet /Euro /bullet
/quotesinglbase /florin /quotedblbase /ellipsis /dagger
/daggerdbl /circumflex /perthousand /Scaron /guilsinglleft
/OE /bullet /Zcaron /bullet /bullet
/quoteleft /quoteright /quotedblleft /quotedblright /bullet
/endash /emdash /asciitilde /trademark /scaron
/guilsinglright /oe /bullet /zcaron /Ydieresis
/space /exclamdown /cent /sterling /currency
/yen /brokenbar /section /dieresis /copyright
/ordfeminine /guillemotleft /logicalnot /sfthyphen /registered
/macron /degree /plusminus /twosuperior /threesuperior
/acute /mu /paragraph /middot /cedilla
/onesuperior /ordmasculine /guillemotright /onequarter /onehalf
/threequarters /questiondown /Agrave /Aacute /Acircumflex
/Atilde /Adieresis /Aring /AE /Ccedilla
/Egrave /Eacute /Ecircumflex /Edieresis /Igrave
/Iacute /Icircumflex /Idieresis /Eth /Ntilde
/Ograve /Oacute /Ocircumflex /Otilde /Odieresis
/multiply /Oslash /Ugrave /Uacute /Ucircumflex
/Udieresis /Yacute /Thorn /germandbls /agrave
/aacute /acircumflex /atilde /adieresis /aring
/ae /ccedilla /egrave /eacute /ecircumflex
/edieresis /igrave /iacute /icircumflex /idieresis
/eth /ntilde /ograve /oacute /ocircumflex
/otilde /odieresis /divide /oslash /ugrave
/uacute /ucircumflex /udieresis /yacute /thorn
/ydieresis
] def
%%EndResource
%FOPBeginFontReencode
/Courier-Oblique findfont
dup length dict begin
  {1 index /FID ne {def} {pop pop} ifelse} forall
  /Encoding WinAnsiEncoding def
  currentdict
end
/Courier-Oblique exch definefont pop
/Courier-BoldOblique findfont
dup length dict begin
  {1 index /FID ne {def} {pop pop} ifelse} forall
  /Encoding WinAnsiEncoding def
  currentdict
end
/Courier-BoldOblique exch definefont pop
/Courier-Bold findfont
dup length dict begin
  {1 index /FID ne {def} {pop pop} ifelse} forall
  /Encoding WinAnsiEncoding def
  currentdict
end
/Courier-Bold exch definefont pop
/Helvetica findfont
dup length dict begin
  {1 index /FID ne {def} {pop pop} ifelse} forall
  /Encoding WinAnsiEncoding def
  currentdict
end
/Helvetica exch definefont pop
/Helvetica-Oblique findfont
dup length dict begin
  {1 index /FID ne {def} {pop pop} ifelse} forall
  /Encoding WinAnsiEncoding def
  currentdict
end
/Helvetica-Oblique exch definefont pop
/Helvetica-Bold findfont
dup length dict begin
  {1 index /FID ne {def} {pop pop} ifelse} forall
  /Encoding WinAnsiEncoding def
  currentdict
end
/Helvetica-Bold exch definefont pop
/Helvetica-BoldOblique findfont
dup length dict begin
  {1 index /FID ne {def} {pop pop} ifelse} forall
  /Encoding WinAnsiEncoding def
  currentdict
end
/Helvetica-BoldOblique exch definefont pop
/Times-Roman findfont
dup length dict begin
  {1 index /FID ne {def} {pop pop} ifelse} forall
  /Encoding WinAnsiEncoding def
  currentdict
end
/Times-Roman exch definefont pop
/Times-Italic findfont
dup length dict begin
  {1 index /FID ne {def} {pop pop} ifelse} forall
  /Encoding WinAnsiEncoding def
  currentdict
end
/Times-Italic exch definefont pop
/Times-Bold findfont
dup length dict begin
  {1 index /FID ne {def} {pop pop} ifelse} forall
  /Encoding WinAnsiEncoding def
  currentdict
end
/Times-Bold exch definefont pop
/Times-BoldItalic findfont
dup length dict begin
  {1 index /FID ne {def} {pop pop} ifelse} forall
  /Encoding WinAnsiEncoding def
  currentdict
end
/Times-BoldItalic exch definefont pop
/Courier findfont
dup length dict begin
  {1 index /FID ne {def} {pop pop} ifelse} forall
  /Encoding WinAnsiEncoding def
  currentdict
end
/Courier exch definefont pop
%FOPEndFontReencode
%%EndProlog
%%Page: 1 1
%%PageBoundingBox: 0 0 420 315
%%BeginPageSetup
[1 0 0 -1 0 315] CT
%%EndPageSetup
GS
[0.6 0 0 0.6 0 0] CT
1 GC
N
0 0 700 525 re
f
GR
GS
[0.6 0 0 0.6 0 0] CT
1 GC
N
0 0 700 525 re
f
GR
GS
[0.6 0 0 0.6 0 0] CT
1 GC
N
101 449 M
634 449 L
634 39 L
101 39 L
cp
f
GR
GS
[0.6 0 0 0.6 0 0] CT
0.149 GC
2 setlinecap
1 LJ
0.833 LW
N
101 449 M
634 449 L
S
GR
GS
[0.6 0 0 0.6 0 0] CT
0.149 GC
2 setlinecap
1 LJ
0.833 LW
N
101 449 M
101 443.67 L
S
GR
GS
[0.6 0 0 0.6 0 0] CT
0.149 GC
2 setlinecap
1 LJ
0.833 LW
N
253.286 449 M
253.286 443.67 L
S
GR
GS
[0.6 0 0 0.6 0 0] CT
0.149 GC
2 setlinecap
1 LJ
0.833 LW
N
405.571 449 M
405.571 443.67 L
S
GR
GS
[0.6 0 0 0.6 0 0] CT
0.149 GC
2 setlinecap
1 LJ
0.833 LW
N
557.857 449 M
557.857 443.67 L
S
GR
GS
[0.6 0 0 0.6 60.6 274.60005] CT
0.149 GC
/Helvetica 26.667 F
GS
[1 0 0 1 0 0] CT
-7.5 25 moveto 
1 -1 scale
(0) t 
GR
GR
GS
[0.6 0 0 0.6 151.97143 274.60005] CT
0.149 GC
/Helvetica 26.667 F
GS
[1 0 0 1 0 0] CT
-15 25 moveto 
1 -1 scale
(20) t 
GR
GR
GS
[0.6 0 0 0.6 243.34286 274.60005] CT
0.149 GC
/Helvetica 26.667 F
GS
[1 0 0 1 0 0] CT
-15 25 moveto 
1 -1 scale
(40) t 
GR
GR
GS
[0.6 0 0 0.6 334.71427 274.60005] CT
0.149 GC
/Helvetica 26.667 F
GS
[1 0 0 1 0 0] CT
-15 25 moveto 
1 -1 scale
(60) t 
GR
GR
GS
[0.6 0 0 0.6 220.50016 293.88003] CT
0.149 GC
N
-6.55 24.109 M
-6.55 23.952 -6.519 23.859 QT
-2.316 7.093 L
-2.207 6.593 -2.175 6.312 QT
-2.175 5.843 -4.066 5.843 QT
-4.363 5.843 -4.363 5.468 QT
-4.347 5.39 -4.293 5.21 QT
-4.238 5.031 -4.168 4.929 QT
-4.097 4.827 -3.941 4.827 QT
-0.035 4.515 L
0.043 4.515 L
0.043 4.546 0.145 4.593 QT
0.247 4.64 0.262 4.656 QT
0.309 4.796 0.309 4.89 QT
-2.738 17.015 L
-1.675 16.562 -0.089 14.913 QT
1.497 13.265 2.403 12.546 QT
3.309 11.827 4.668 11.827 QT
5.465 11.827 6.036 12.382 QT
6.606 12.937 6.606 13.734 QT
6.606 14.249 6.395 14.679 QT
6.184 15.109 5.801 15.382 QT
5.418 15.656 4.903 15.656 QT
4.434 15.656 4.114 15.359 QT
3.793 15.062 3.793 14.593 QT
3.793 13.906 4.286 13.429 QT
4.778 12.952 5.465 12.952 QT
5.184 12.577 4.606 12.577 QT
3.747 12.577 2.942 13.07 QT
2.137 13.562 1.215 14.491 QT
0.293 15.421 -0.472 16.195 QT
-1.238 16.968 -1.894 17.359 QT
-0.175 17.562 1.082 18.265 QT
2.34 18.968 2.34 20.406 QT
2.34 20.702 2.231 21.156 QT
1.965 22.249 1.965 22.906 QT
1.965 24.202 2.856 24.202 QT
3.918 24.202 4.457 23.054 QT
4.997 21.906 5.356 20.374 QT
5.418 20.202 5.59 20.202 QT
5.934 20.202 L
6.043 20.202 6.122 20.273 QT
6.2 20.343 6.2 20.468 QT
6.2 20.484 6.184 20.546 QT
5.09 24.968 2.809 24.968 QT
1.981 24.968 1.356 24.585 QT
0.731 24.202 0.387 23.546 QT
0.043 22.89 0.043 22.062 QT
0.043 21.593 0.168 21.093 QT
0.262 20.765 0.262 20.468 QT
0.262 19.343 -0.73 18.765 QT
-1.722 18.187 -3.003 18.062 QT
-4.472 23.968 L
-4.582 24.406 -4.91 24.687 QT
-5.238 24.968 -5.66 24.968 QT
-6.035 24.968 -6.293 24.718 QT
-6.55 24.468 -6.55 24.109 QT
cp
f
GR
GS
[0.6 0 0 0.6 0 0] CT
0.149 GC
2 setlinecap
1 LJ
0.833 LW
N
101 449 M
101 39 L
S
GR
GS
[0.6 0 0 0.6 0 0] CT
0.149 GC
2 setlinecap
1 LJ
0.833 LW
N
101 385.923 M
106.33 385.923 L
S
GR
GS
[0.6 0 0 0.6 0 0] CT
0.149 GC
2 setlinecap
1 LJ
0.833 LW
N
101 280.795 M
106.33 280.795 L
S
GR
GS
[0.6 0 0 0.6 0 0] CT
0.149 GC
2 setlinecap
1 LJ
0.833 LW
N
101 175.667 M
106.33 175.667 L
S
GR
GS
[0.6 0 0 0.6 0 0] CT
0.149 GC
2 setlinecap
1 LJ
0.833 LW
N
101 70.538 M
106.33 70.538 L
S
GR
GS
[0.6 0 0 0.6 55.4 231.55384] CT
0.149 GC
/Helvetica 26.667 F
GS
[1 0 0 1 0 0] CT
-52 9.5 moveto 
1 -1 scale
(13.5) t 
GR
GR
GS
[0.6 0 0 0.6 55.4 168.47692] CT
0.149 GC
/Helvetica 26.667 F
GS
[1 0 0 1 0 0] CT
-30 9.5 moveto 
1 -1 scale
(14) t 
GR
GR
GS
[0.6 0 0 0.6 55.4 105.4] CT
0.149 GC
/Helvetica 26.667 F
GS
[1 0 0 1 0 0] CT
-52 9.5 moveto 
1 -1 scale
(14.5) t 
GR
GR
GS
[0.6 0 0 0.6 55.4 42.32308] CT
0.149 GC
/Helvetica 26.667 F
GS
[1 0 0 1 0 0] CT
-30 9.5 moveto 
1 -1 scale
(15) t 
GR
GR
GS
[0 -0.6 0.6 0 21.12 146.39997] CT
0.149 GC
N
-66.973 -11.388 M
-66.458 -10.998 -65.536 -10.998 QT
-64.63 -10.998 -63.934 -11.873 QT
-63.239 -12.748 -62.973 -13.779 QT
-61.661 -18.919 L
-61.348 -20.31 -61.348 -20.826 QT
-61.348 -21.544 -61.755 -22.084 QT
-62.161 -22.623 -62.88 -22.623 QT
-63.801 -22.623 -64.606 -22.052 QT
-65.411 -21.482 -65.965 -20.591 QT
-66.52 -19.701 -66.739 -18.794 QT
-66.801 -18.623 -66.973 -18.623 QT
-67.333 -18.623 L
-67.551 -18.623 -67.551 -18.888 QT
-67.551 -18.966 L
-67.27 -20.044 -66.59 -21.076 QT
-65.911 -22.107 -64.926 -22.74 QT
-63.942 -23.373 -62.817 -23.373 QT
-61.755 -23.373 -60.903 -22.81 QT
-60.051 -22.248 -59.692 -21.263 QT
-59.192 -22.154 -58.426 -22.763 QT
-57.661 -23.373 -56.739 -23.373 QT
-56.114 -23.373 -55.465 -23.154 QT
-54.817 -22.935 -54.403 -22.482 QT
-53.989 -22.029 -53.989 -21.357 QT
-53.989 -20.607 -54.465 -20.076 QT
-54.942 -19.544 -55.676 -19.544 QT
-56.145 -19.544 -56.458 -19.849 QT
-56.77 -20.154 -56.77 -20.607 QT
-56.77 -21.216 -56.348 -21.669 QT
-55.926 -22.123 -55.348 -22.216 QT
-55.864 -22.623 -56.786 -22.623 QT
-57.723 -22.623 -58.411 -21.763 QT
-59.098 -20.904 -59.38 -19.841 QT
-60.661 -14.716 L
-60.973 -13.544 -60.973 -12.794 QT
-60.973 -12.06 -60.551 -11.529 QT
-60.13 -10.998 -59.442 -10.998 QT
-58.083 -10.998 -57.012 -12.193 QT
-55.942 -13.388 -55.598 -14.826 QT
-55.551 -14.998 -55.38 -14.998 QT
-55.02 -14.998 L
-54.911 -14.998 -54.84 -14.919 QT
-54.77 -14.841 -54.77 -14.732 QT
-54.77 -14.716 -54.801 -14.654 QT
-55.208 -12.919 -56.52 -11.576 QT
-57.833 -10.232 -59.489 -10.232 QT
-60.551 -10.232 -61.411 -10.81 QT
-62.27 -11.388 -62.63 -12.357 QT
-63.083 -11.513 -63.88 -10.873 QT
-64.676 -10.232 -65.583 -10.232 QT
-66.208 -10.232 -66.864 -10.451 QT
-67.52 -10.669 -67.934 -11.123 QT
-68.348 -11.576 -68.348 -12.279 QT
-68.348 -12.951 -67.872 -13.513 QT
-67.395 -14.076 -66.692 -14.076 QT
-66.208 -14.076 -65.88 -13.787 QT
-65.551 -13.498 -65.551 -13.029 QT
-65.551 -12.419 -65.958 -11.966 QT
-66.364 -11.513 -66.973 -11.388 QT
cp
f
GR
GS
[0 -0.6 0.6 0 21.12 146.39997] CT
0.149 GC
N
-50.521 -6.16 M
-50.521 -6.895 L
-47.896 -6.895 -47.896 -7.566 QT
-47.896 -18.582 L
-48.99 -18.066 -50.646 -18.066 QT
-50.646 -18.801 L
-48.068 -18.801 -46.755 -20.145 QT
-46.458 -20.145 L
-46.396 -20.145 -46.326 -20.09 QT
-46.255 -20.035 -46.255 -19.957 QT
-46.255 -7.566 L
-46.255 -6.895 -43.63 -6.895 QT
-43.63 -6.16 L
-50.521 -6.16 L
cp
f
GR
GS
[0 -0.6 0.6 0 21.12 146.39997] CT
0.149 GC
N
-37.866 -5.341 M
-37.866 -5.466 -37.756 -5.576 QT
-36.71 -6.576 -36.124 -7.896 QT
-35.538 -9.216 -35.538 -10.669 QT
-35.538 -11.029 L
-36.006 -10.56 -36.71 -10.56 QT
-37.366 -10.56 -37.835 -11.029 QT
-38.303 -11.498 -38.303 -12.154 QT
-38.303 -12.841 -37.835 -13.294 QT
-37.366 -13.748 -36.71 -13.748 QT
-35.678 -13.748 -35.233 -12.794 QT
-34.788 -11.841 -34.788 -10.669 QT
-34.788 -9.06 -35.436 -7.607 QT
-36.085 -6.154 -37.256 -4.998 QT
-37.366 -4.935 -37.444 -4.935 QT
-37.585 -4.935 -37.725 -5.068 QT
-37.866 -5.201 -37.866 -5.341 QT
cp
f
GR
GS
[0 -0.6 0.6 0 21.12 146.39997] CT
0.149 GC
N
-20.549 -11.388 M
-20.034 -10.998 -19.112 -10.998 QT
-18.205 -10.998 -17.51 -11.873 QT
-16.815 -12.748 -16.549 -13.779 QT
-15.237 -18.919 L
-14.924 -20.31 -14.924 -20.826 QT
-14.924 -21.544 -15.33 -22.084 QT
-15.737 -22.623 -16.455 -22.623 QT
-17.377 -22.623 -18.182 -22.052 QT
-18.987 -21.482 -19.541 -20.591 QT
-20.096 -19.701 -20.315 -18.794 QT
-20.377 -18.623 -20.549 -18.623 QT
-20.909 -18.623 L
-21.127 -18.623 -21.127 -18.888 QT
-21.127 -18.966 L
-20.846 -20.044 -20.166 -21.076 QT
-19.487 -22.107 -18.502 -22.74 QT
-17.518 -23.373 -16.393 -23.373 QT
-15.33 -23.373 -14.479 -22.81 QT
-13.627 -22.248 -13.268 -21.263 QT
-12.768 -22.154 -12.002 -22.763 QT
-11.237 -23.373 -10.315 -23.373 QT
-9.69 -23.373 -9.041 -23.154 QT
-8.393 -22.935 -7.979 -22.482 QT
-7.565 -22.029 -7.565 -21.357 QT
-7.565 -20.607 -8.041 -20.076 QT
-8.518 -19.544 -9.252 -19.544 QT
-9.721 -19.544 -10.034 -19.849 QT
-10.346 -20.154 -10.346 -20.607 QT
-10.346 -21.216 -9.924 -21.669 QT
-9.502 -22.123 -8.924 -22.216 QT
-9.44 -22.623 -10.362 -22.623 QT
-11.299 -22.623 -11.987 -21.763 QT
-12.674 -20.904 -12.955 -19.841 QT
-14.237 -14.716 L
-14.549 -13.544 -14.549 -12.794 QT
-14.549 -12.06 -14.127 -11.529 QT
-13.705 -10.998 -13.018 -10.998 QT
-11.659 -10.998 -10.588 -12.193 QT
-9.518 -13.388 -9.174 -14.826 QT
-9.127 -14.998 -8.955 -14.998 QT
-8.596 -14.998 L
-8.487 -14.998 -8.416 -14.919 QT
-8.346 -14.841 -8.346 -14.732 QT
-8.346 -14.716 -8.377 -14.654 QT
-8.784 -12.919 -10.096 -11.576 QT
-11.409 -10.232 -13.065 -10.232 QT
-14.127 -10.232 -14.987 -10.81 QT
-15.846 -11.388 -16.205 -12.357 QT
-16.659 -11.513 -17.455 -10.873 QT
-18.252 -10.232 -19.159 -10.232 QT
-19.784 -10.232 -20.44 -10.451 QT
-21.096 -10.669 -21.51 -11.123 QT
-21.924 -11.576 -21.924 -12.279 QT
-21.924 -12.951 -21.448 -13.513 QT
-20.971 -14.076 -20.268 -14.076 QT
-19.784 -14.076 -19.455 -13.787 QT
-19.127 -13.498 -19.127 -13.029 QT
-19.127 -12.419 -19.534 -11.966 QT
-19.94 -11.513 -20.549 -11.388 QT
cp
f
GR
GS
[0 -0.6 0.6 0 21.12 146.39997] CT
0.149 GC
N
-4.05 -7.785 M
-3.566 -7.066 -2.73 -6.715 QT
-1.894 -6.363 -0.941 -6.363 QT
0.278 -6.363 0.794 -7.402 QT
1.309 -8.441 1.309 -9.77 QT
1.309 -10.363 1.2 -10.957 QT
1.091 -11.551 0.833 -12.066 QT
0.575 -12.582 0.13 -12.887 QT
-0.316 -13.191 -0.956 -13.191 QT
-2.363 -13.191 L
-2.55 -13.191 -2.55 -13.395 QT
-2.55 -13.566 L
-2.55 -13.738 -2.363 -13.738 QT
-1.206 -13.832 L
-0.456 -13.832 0.028 -14.387 QT
0.512 -14.941 0.739 -15.73 QT
0.966 -16.52 0.966 -17.238 QT
0.966 -18.254 0.497 -18.895 QT
0.028 -19.535 -0.941 -19.535 QT
-1.738 -19.535 -2.472 -19.238 QT
-3.206 -18.941 -3.628 -18.316 QT
-3.581 -18.332 -3.558 -18.34 QT
-3.534 -18.348 -3.488 -18.348 QT
-3.019 -18.348 -2.698 -18.02 QT
-2.378 -17.691 -2.378 -17.223 QT
-2.378 -16.77 -2.698 -16.441 QT
-3.019 -16.113 -3.488 -16.113 QT
-3.941 -16.113 -4.269 -16.441 QT
-4.597 -16.77 -4.597 -17.223 QT
-4.597 -18.129 -4.058 -18.793 QT
-3.519 -19.457 -2.659 -19.801 QT
-1.8 -20.145 -0.941 -20.145 QT
-0.3 -20.145 0.403 -19.957 QT
1.106 -19.77 1.684 -19.418 QT
2.262 -19.066 2.622 -18.512 QT
2.981 -17.957 2.981 -17.238 QT
2.981 -16.363 2.591 -15.613 QT
2.2 -14.863 1.512 -14.324 QT
0.825 -13.785 -0.003 -13.52 QT
0.919 -13.332 1.739 -12.824 QT
2.559 -12.316 3.052 -11.512 QT
3.544 -10.707 3.544 -9.785 QT
3.544 -8.629 2.911 -7.691 QT
2.278 -6.754 1.239 -6.223 QT
0.2 -5.691 -0.941 -5.691 QT
-1.925 -5.691 -2.917 -6.066 QT
-3.909 -6.441 -4.542 -7.191 QT
-5.175 -7.941 -5.175 -8.988 QT
-5.175 -9.52 -4.823 -9.863 QT
-4.472 -10.207 -3.941 -10.207 QT
-3.613 -10.207 -3.331 -10.051 QT
-3.05 -9.895 -2.886 -9.605 QT
-2.722 -9.316 -2.722 -8.988 QT
-2.722 -8.473 -3.081 -8.129 QT
-3.441 -7.785 -3.941 -7.785 QT
-4.05 -7.785 L
cp
f
GR
GS
[0 -0.6 0.6 0 21.12 146.39997] CT
0.149 GC
N
18.883 -3.31 M
18.883 -32.31 L
22.852 -32.31 L
22.852 -31.154 L
20.055 -31.154 L
20.055 -4.466 L
22.852 -4.466 L
22.852 -3.31 L
18.883 -3.31 L
cp
f
GR
GS
[0 -0.6 0.6 0 21.12 146.39997] CT
0.149 GC
N
30.828 -10.232 M
29.078 -10.232 27.648 -11.146 QT
26.219 -12.06 25.398 -13.584 QT
24.578 -15.107 24.578 -16.826 QT
24.578 -18.529 25.39 -20.099 QT
26.203 -21.669 27.64 -22.615 QT
29.078 -23.56 30.828 -23.56 QT
32.531 -23.56 33.922 -22.896 QT
35.312 -22.232 35.312 -20.716 QT
35.312 -20.154 34.914 -19.732 QT
34.515 -19.31 33.937 -19.31 QT
33.359 -19.31 32.953 -19.732 QT
32.547 -20.154 32.547 -20.716 QT
32.547 -21.216 32.875 -21.591 QT
33.203 -21.966 33.672 -22.076 QT
32.672 -22.716 30.859 -22.716 QT
29.469 -22.716 28.617 -21.794 QT
27.765 -20.873 27.43 -19.513 QT
27.094 -18.154 27.094 -16.826 QT
27.094 -15.419 27.508 -14.107 QT
27.922 -12.794 28.851 -11.943 QT
29.781 -11.091 31.187 -11.091 QT
32.562 -11.091 33.523 -11.927 QT
34.484 -12.763 34.844 -14.123 QT
34.844 -14.294 35.062 -14.294 QT
35.422 -14.294 L
35.5 -14.294 35.57 -14.216 QT
35.64 -14.138 35.64 -14.044 QT
35.64 -13.966 L
35.203 -12.248 33.898 -11.24 QT
32.594 -10.232 30.828 -10.232 QT
cp
f
GR
GS
[0 -0.6 0.6 0 21.12 146.39997] CT
0.149 GC
N
37.506 -10.56 M
37.506 -11.576 L
38.506 -11.576 39.138 -11.732 QT
39.771 -11.888 39.771 -12.498 QT
39.771 -20.419 L
39.771 -21.201 39.537 -21.544 QT
39.303 -21.888 38.865 -21.966 QT
38.428 -22.044 37.506 -22.044 QT
37.506 -23.06 L
41.709 -23.373 L
41.709 -20.544 L
42.303 -21.794 43.443 -22.584 QT
44.584 -23.373 45.928 -23.373 QT
49.256 -23.373 49.849 -20.654 QT
50.428 -21.873 51.545 -22.623 QT
52.662 -23.373 53.99 -23.373 QT
55.303 -23.373 56.209 -22.951 QT
57.115 -22.529 57.568 -21.654 QT
58.021 -20.779 58.021 -19.466 QT
58.021 -12.498 L
58.021 -11.888 58.662 -11.732 QT
59.303 -11.576 60.287 -11.576 QT
60.287 -10.56 L
53.646 -10.56 L
53.646 -11.576 L
54.631 -11.576 55.271 -11.732 QT
55.912 -11.888 55.912 -12.498 QT
55.912 -19.388 L
55.912 -20.841 55.498 -21.732 QT
55.084 -22.623 53.803 -22.623 QT
52.131 -22.623 51.045 -21.279 QT
49.959 -19.935 49.959 -18.216 QT
49.959 -12.498 L
49.959 -11.888 50.592 -11.732 QT
51.224 -11.576 52.224 -11.576 QT
52.224 -10.56 L
45.584 -10.56 L
45.584 -11.576 L
46.568 -11.576 47.209 -11.732 QT
47.849 -11.888 47.849 -12.498 QT
47.849 -19.388 L
47.849 -20.794 47.435 -21.709 QT
47.021 -22.623 45.756 -22.623 QT
44.068 -22.623 42.982 -21.279 QT
41.896 -19.935 41.896 -18.216 QT
41.896 -12.498 L
41.896 -11.888 42.537 -11.732 QT
43.178 -11.576 44.146 -11.576 QT
44.146 -10.56 L
37.506 -10.56 L
cp
f
GR
GS
[0 -0.6 0.6 0 21.12 146.39997] CT
0.149 GC
N
61.731 -3.31 M
61.731 -4.466 L
64.544 -4.466 L
64.544 -31.154 L
61.731 -31.154 L
61.731 -32.31 L
65.7 -32.31 L
65.7 -3.31 L
61.731 -3.31 L
cp
f
GR
GS
[0.6 0 0 0.6 0 0] CT
1 LJ
3.333 LW
N
108.614 283.263 M
116.229 444.253 L
123.843 426.653 L
131.457 382.987 L
139.071 350.97 L
146.686 327.989 L
154.3 311.972 L
161.914 301.277 L
169.529 294.602 L
177.143 290.924 L
184.757 289.438 L
192.371 289.517 L
199.986 290.679 L
207.6 292.55 L
215.214 294.852 L
222.829 297.375 L
230.443 299.97 L
238.057 302.527 L
245.671 304.976 L
253.286 307.267 L
260.9 309.376 L
268.514 311.289 L
276.129 313.004 L
283.743 314.527 L
291.357 315.867 L
298.971 317.038 L
306.586 318.054 L
314.2 318.931 L
321.814 319.684 L
329.429 320.327 L
337.043 320.875 L
344.657 321.34 L
352.271 321.733 L
359.886 322.065 L
367.5 322.344 L
375.114 322.579 L
382.729 322.777 L
390.343 322.943 L
397.957 323.083 L
405.571 323.202 L
413.186 323.302 L
420.8 323.388 L
428.414 323.461 L
436.029 323.525 L
443.643 323.58 L
451.257 323.629 L
458.871 323.672 L
466.486 323.711 L
474.1 323.747 L
481.714 323.78 L
489.329 323.811 L
496.943 323.84 L
504.557 323.868 L
512.171 323.895 L
519.786 323.92 L
527.4 323.946 L
535.014 323.971 L
542.629 323.995 L
550.243 324.02 L
557.857 324.044 L
565.471 324.068 L
573.086 324.092 L
580.7 324.116 L
588.314 324.14 L
595.929 324.164 L
603.543 324.188 L
611.157 324.212 L
618.771 324.236 L
626.386 324.26 L
634 324.284 L
634.064 324.284 L
S
GR
GS
[0.6 0 0 0.6 0 0] CT
1 LJ
3.333 LW
N
108.614 267.246 M
116.229 361.357 L
123.843 316.011 L
131.457 283.554 L
139.071 259.702 L
146.686 242.45 L
154.3 230.229 L
161.914 221.813 L
169.529 216.247 L
177.143 212.788 L
184.757 210.866 L
192.371 210.043 L
199.986 209.984 L
207.6 210.44 L
215.214 211.222 L
222.829 212.194 L
230.443 213.257 L
238.057 214.341 L
245.671 215.398 L
253.286 216.398 L
260.9 217.322 L
268.514 218.16 L
276.129 218.91 L
283.743 219.571 L
291.357 220.148 L
298.971 220.647 L
306.586 221.074 L
314.2 221.436 L
321.814 221.74 L
329.429 221.995 L
337.043 222.204 L
344.657 222.376 L
352.271 222.514 L
359.886 222.625 L
367.5 222.712 L
375.114 222.779 L
382.729 222.828 L
390.343 222.864 L
397.957 222.888 L
405.571 222.903 L
413.186 222.909 L
420.8 222.909 L
428.414 222.903 L
436.029 222.893 L
443.643 222.88 L
451.257 222.864 L
458.871 222.845 L
466.486 222.825 L
474.1 222.803 L
481.714 222.78 L
489.329 222.756 L
496.943 222.731 L
504.557 222.706 L
512.171 222.68 L
519.786 222.655 L
527.4 222.629 L
535.014 222.602 L
542.629 222.576 L
550.243 222.549 L
557.857 222.522 L
565.471 222.496 L
573.086 222.469 L
580.7 222.442 L
588.314 222.415 L
595.929 222.388 L
603.543 222.361 L
611.157 222.335 L
618.771 222.308 L
626.386 222.281 L
634 222.254 L
634.064 222.254 L
S
GR
GS
[0.6 0 0 0.6 0 0] CT
0 0 1 RC
1 LJ
3.333 LW
N
108.614 283.263 M
116.229 444.71 L
123.843 421.438 L
131.457 392.216 L
139.071 368.036 L
146.686 348.656 L
154.3 333.374 L
161.914 321.475 L
169.529 312.309 L
177.143 305.314 L
184.757 300.019 L
192.371 296.04 L
199.986 293.066 L
207.6 290.852 L
215.214 289.205 L
222.829 287.979 L
230.443 287.06 L
238.057 286.365 L
245.671 285.833 L
253.286 285.418 L
260.9 285.089 L
268.514 284.821 L
276.129 284.6 L
283.743 284.414 L
291.357 284.255 L
298.971 284.117 L
306.586 283.999 L
314.2 283.895 L
321.814 283.804 L
329.429 283.725 L
337.043 283.656 L
344.657 283.596 L
352.271 283.544 L
359.886 283.5 L
367.5 283.461 L
375.114 283.428 L
382.729 283.401 L
390.343 283.377 L
397.957 283.357 L
405.571 283.341 L
413.186 283.327 L
420.8 283.315 L
428.414 283.305 L
436.029 283.298 L
443.643 283.291 L
451.257 283.285 L
458.871 283.281 L
466.486 283.277 L
474.1 283.275 L
481.714 283.272 L
489.329 283.27 L
496.943 283.269 L
504.557 283.268 L
512.171 283.267 L
519.786 283.266 L
527.4 283.265 L
535.014 283.265 L
542.629 283.264 L
550.243 283.264 L
557.857 283.264 L
565.471 283.263 L
573.086 283.263 L
580.7 283.263 L
588.314 283.263 L
595.929 283.263 L
603.543 283.263 L
611.157 283.263 L
618.771 283.263 L
626.386 283.263 L
634 283.263 L
634.064 283.263 L
S
GR
GS
[0.6 0 0 0.6 0 0] CT
0 0 1 RC
1 LJ
3.333 LW
N
108.614 267.246 M
116.229 370.485 L
123.843 196.224 L
131.457 105.265 L
139.071 62.73 L
146.686 49.873 L
154.3 54.837 L
161.914 69.829 L
169.529 89.795 L
177.143 111.531 L
184.757 133.074 L
192.371 153.291 L
199.986 171.594 L
207.6 187.744 L
215.214 201.721 L
222.829 213.633 L
230.443 223.662 L
238.057 232.017 L
245.671 238.917 L
253.286 244.573 L
260.9 249.177 L
268.514 252.903 L
276.129 255.903 L
283.743 258.306 L
291.357 260.223 L
298.971 261.745 L
306.586 262.95 L
314.2 263.9 L
321.814 264.647 L
329.429 265.233 L
337.043 265.69 L
344.657 266.046 L
352.271 266.323 L
359.886 266.538 L
367.5 266.704 L
375.114 266.832 L
382.729 266.93 L
390.343 267.006 L
397.957 267.064 L
405.571 267.108 L
413.186 267.142 L
420.8 267.167 L
428.414 267.187 L
436.029 267.202 L
443.643 267.213 L
451.257 267.221 L
458.871 267.228 L
466.486 267.233 L
474.1 267.236 L
481.714 267.239 L
489.329 267.241 L
496.943 267.242 L
504.557 267.243 L
512.171 267.244 L
519.786 267.245 L
527.4 267.245 L
535.014 267.246 L
542.629 267.246 L
550.243 267.246 L
557.857 267.246 L
565.471 267.246 L
573.086 267.246 L
580.7 267.246 L
588.314 267.246 L
595.929 267.246 L
603.543 267.246 L
611.157 267.246 L
618.771 267.246 L
626.386 267.246 L
634 267.246 L
634.064 267.246 L
S
GR
GS
[0.6 0 0 0.6 0 0] CT
1 0 0 RC
1 LJ
3.333 LW
N
108.614 283.263 M
116.229 444.684 L
123.843 437.15 L
131.457 428.059 L
139.071 418.311 L
146.686 408.482 L
154.3 398.928 L
161.914 389.856 L
169.529 381.371 L
177.143 373.514 L
184.757 366.285 L
192.371 359.66 L
199.986 353.598 L
207.6 348.056 L
215.214 342.988 L
222.829 338.348 L
230.443 334.094 L
238.057 330.19 L
245.671 326.6 L
253.286 323.295 L
260.9 320.248 L
268.514 317.436 L
276.129 314.838 L
283.743 312.436 L
291.357 310.213 L
298.971 308.157 L
306.586 306.253 L
314.2 304.49 L
321.814 302.859 L
329.429 301.348 L
337.043 299.95 L
344.657 298.656 L
352.271 297.459 L
359.886 296.352 L
367.5 295.329 L
375.114 294.383 L
382.729 293.509 L
390.343 292.702 L
397.957 291.956 L
405.571 291.269 L
413.186 290.634 L
420.8 290.048 L
428.414 289.509 L
436.029 289.011 L
443.643 288.552 L
451.257 288.13 L
458.871 287.74 L
466.486 287.381 L
474.1 287.051 L
481.714 286.747 L
489.329 286.467 L
496.943 286.21 L
504.557 285.972 L
512.171 285.754 L
519.786 285.554 L
527.4 285.369 L
535.014 285.199 L
542.629 285.043 L
550.243 284.899 L
557.857 284.767 L
565.471 284.646 L
573.086 284.534 L
580.7 284.431 L
588.314 284.337 L
595.929 284.25 L
603.543 284.17 L
611.157 284.097 L
618.771 284.029 L
626.386 283.967 L
634 283.91 L
634.064 283.91 L
S
GR
GS
[0.6 0 0 0.6 0 0] CT
1 0 0 RC
1 LJ
3.333 LW
N
108.614 267.246 M
116.229 369.958 L
123.843 311.507 L
131.457 269.819 L
139.071 240.613 L
146.686 220.684 L
154.3 207.626 L
161.914 199.629 L
169.529 195.336 L
177.143 193.723 L
184.757 194.023 L
192.371 195.661 L
199.986 198.205 L
207.6 201.339 L
215.214 204.823 L
222.829 208.487 L
230.443 212.205 L
238.057 215.887 L
245.671 219.472 L
253.286 222.919 L
260.9 226.201 L
268.514 229.302 L
276.129 232.216 L
283.743 234.941 L
291.357 237.48 L
298.971 239.838 L
306.586 242.024 L
314.2 244.046 L
321.814 245.913 L
329.429 247.636 L
337.043 249.224 L
344.657 250.685 L
352.271 252.03 L
359.886 253.267 L
367.5 254.405 L
375.114 255.45 L
382.729 256.411 L
390.343 257.293 L
397.957 258.104 L
405.571 258.848 L
413.186 259.532 L
420.8 260.16 L
428.414 260.737 L
436.029 261.266 L
443.643 261.753 L
451.257 262.2 L
458.871 262.61 L
466.486 262.987 L
474.1 263.333 L
481.714 263.651 L
489.329 263.943 L
496.943 264.211 L
504.557 264.458 L
512.171 264.684 L
519.786 264.892 L
527.4 265.083 L
535.014 265.259 L
542.629 265.42 L
550.243 265.568 L
557.857 265.704 L
565.471 265.829 L
573.086 265.944 L
580.7 266.05 L
588.314 266.147 L
595.929 266.236 L
603.543 266.318 L
611.157 266.393 L
618.771 266.462 L
626.386 266.526 L
634 266.584 L
634.064 266.585 L
S
GR
GS
[0.6 0 0 0.6 0 0] CT
[12 12] 0 setdash
2 LJ
3.333 LW
N
101 283.263 M
634.064 283.263 L
S
GR
GS
[0.6 0 0 0.6 0 0] CT
[12 12] 0 setdash
2 LJ
3.333 LW
N
101 267.246 M
634.064 267.246 L
S
GR
%%Trailer
%%Pages: 1
%%EOF
